id_mesure,id_centre,date_mesure,temperature,pression,pluviometrie
1566,138,2021-10-29,8.0,1015,3
1568,213,2021-10-29,15.1,1011,0
2174,126,2021-10-30,18.2,1023,0
2200,185,2021-10-30,5.6,989,20
2232,459,2021-10-31,25.0,1035,0
2514,213,2021-10-31,17.4,1020,0
2563,126,2021-11-01,10.1,1005,15
2592,459,2021-11-01,23.3,1028,2
3425,317,2021-11-02,9.0,1012,13
3430,138,2021-11-02,7.5,996,16
3611,263,2021-11-03,13.9,1005,8
3625,126,2021-11-03,10.8,1008,8
