<?xml version="1.0" encoding="ISO-8859-1" standalone="no"?>

<svg 
     version="1.1"
     baseProfile="full"
     xmlns="http://www.w3.org/2000/svg"
     xmlns:xlink="http://www.w3.org/1999/xlink"
     xmlns:ev="http://www.w3.org/2001/xml-events"
     width="28.22222222222222cm"
     height="13.476111111111111cm"
     viewBox="0 0 1245 594"
     >
<title>

</title>
<g stroke-linejoin="miter" stroke-dashoffset="0.0000" stroke-dasharray="none" stroke-width="1.0000" stroke-miterlimit="10.000" stroke-linecap="square">
<g id="misc">
</g><!-- misc -->
<g id="layer0">
<g transform="matrix(1.0000, 0.0000, 0.0000, 1.0000, -46.000, -97.000)">
<clipPath id="clip91fe9659-f5d5-43c3-8e98-d00b336fa1d6">
  <path d="M 46.000 97.000 L 46.000 692.00 L 1291.0 692.00 L 1291.0 97.000 z"/>
</clipPath>
<g clip-path="url(#clip1)">
<g stroke-linejoin="round" stroke-width="4.5000" stroke-linecap="round" fill="none" stroke-opacity=".69804" stroke="#000000">
  <path d="M 711.71 481.07 C 711.71 516.52 682.98 545.26 647.53 545.26 C 612.08 545.26 583.34 516.52 583.34 481.07 C 583.34 445.62 612.08 416.89 647.53 416.89 C 682.98 416.89 711.71 445.62 711.71 481.07 z"/>
<title>Cercle c</title>
<desc>Cercle c: Cercle de centre E_1 et de rayon 0.9</desc>

</g> <!-- drawing style -->
</g> <!-- clip1 -->
</g> <!-- transform -->
<g transform="matrix(1.0000, 0.0000, 0.0000, 1.0000, -46.000, -97.000)">
<clipPath id="clip49161933-a9df-4be4-be97-e44dd0f025a2">
  <path d="M 46.000 97.000 L 46.000 692.00 L 1291.0 692.00 L 1291.0 97.000 z"/>
</clipPath>
<g clip-path="url(#clip2)">
<g stroke-linejoin="round" stroke-width="2.5000" stroke-linecap="round" fill="none" stroke-opacity=".69804" stroke="#000000">
  <path d="M 183.98 231.47 L 183.98 659.36"/>
<title>Segment f</title>
<desc>Segment f: Segment [AB]</desc>

</g> <!-- drawing style -->
</g> <!-- clip2 -->
</g> <!-- transform -->
<g transform="matrix(1.0000, 0.0000, 0.0000, 1.0000, -46.000, -97.000)">
<clipPath id="clip314890fd-ea5e-46f9-acc6-f9e0c0352578">
  <path d="M 46.000 97.000 L 46.000 692.00 L 1291.0 692.00 L 1291.0 97.000 z"/>
</clipPath>
<g clip-path="url(#clip3)">
<g stroke-linejoin="round" stroke-width="2.5000" stroke-linecap="round" fill="none" stroke-opacity=".69804" stroke="#000000">
  <path d="M 183.98 659.36 L 754.50 659.36"/>
<title>Segment g</title>
<desc>Segment g: Segment [BC]</desc>

</g> <!-- drawing style -->
</g> <!-- clip3 -->
</g> <!-- transform -->
<g transform="matrix(1.0000, 0.0000, 0.0000, 1.0000, -46.000, -97.000)">
<clipPath id="clip9ca638af-bc93-4277-ad5d-66e9352c0bcf">
  <path d="M 46.000 97.000 L 46.000 692.00 L 1291.0 692.00 L 1291.0 97.000 z"/>
</clipPath>
<g clip-path="url(#clip4)">
<g stroke-linejoin="round" stroke-width="2.5000" stroke-linecap="round" fill="none" stroke-opacity=".69804" stroke="#000000">
  <path d="M 754.50 659.36 L 754.50 231.47"/>
<title>Segment h</title>
<desc>Segment h: Segment [CD]</desc>

</g> <!-- drawing style -->
</g> <!-- clip4 -->
</g> <!-- transform -->
<g transform="matrix(1.0000, 0.0000, 0.0000, 1.0000, -46.000, -97.000)">
<clipPath id="clipcd811882-e67f-47e8-a44a-2fcc57262f8d">
  <path d="M 46.000 97.000 L 46.000 692.00 L 1291.0 692.00 L 1291.0 97.000 z"/>
</clipPath>
<g clip-path="url(#clip5)">
<g stroke-linejoin="round" stroke-width="2.5000" stroke-linecap="round" fill="none" stroke-opacity=".69804" stroke="#000000">
  <path d="M 183.98 231.47 L 754.50 231.47"/>
<title>Segment i</title>
<desc>Segment i: Segment [AD]</desc>

</g> <!-- drawing style -->
</g> <!-- clip5 -->
</g> <!-- transform -->
<g transform="matrix(1.0000, 0.0000, 0.0000, 1.0000, -46.000, -97.000)">
<clipPath id="clip9586a82c-23d9-41d2-94ed-976d7b90a23c">
  <path d="M 46.000 97.000 L 46.000 692.00 L 1291.0 692.00 L 1291.0 97.000 z"/>
</clipPath>
<g clip-path="url(#clip6)">
<g stroke-linejoin="round" stroke-width="2.5000" stroke-linecap="round" fill="none" stroke-opacity=".69804" stroke="#000000">
  <path d="M 683.19 231.47 L 683.19 659.36"/>
<title>Segment j</title>
<desc>Segment j: Segment [EF]</desc>

</g> <!-- drawing style -->
</g> <!-- clip6 -->
</g> <!-- transform -->
<g transform="matrix(1.0000, 0.0000, 0.0000, 1.0000, -46.000, -97.000)">
<clipPath id="clipb2425f73-6456-4317-a5cf-9b4a3bca8ca1">
  <path d="M 46.000 97.000 L 46.000 692.00 L 1291.0 692.00 L 1291.0 97.000 z"/>
</clipPath>
<g clip-path="url(#clip7)">
<g stroke-linejoin="round" stroke-width="2.5000" stroke-linecap="round" fill="none" stroke-opacity=".69804" stroke="#000000">
  <path d="M 611.87 659.36 L 611.87 231.47"/>
<title>Segment k</title>
<desc>Segment k: Segment [GH]</desc>

</g> <!-- drawing style -->
</g> <!-- clip7 -->
</g> <!-- transform -->
<g transform="matrix(1.0000, 0.0000, 0.0000, 1.0000, -46.000, -97.000)">
<clipPath id="clipf936b57e-ccb4-4f0c-a1d1-44fba6572890">
  <path d="M 46.000 97.000 L 46.000 692.00 L 1291.0 692.00 L 1291.0 97.000 z"/>
</clipPath>
<g clip-path="url(#clip8)">
<g stroke-linejoin="round" stroke-width="2.5000" stroke-linecap="round" fill="none" stroke-opacity=".69804" stroke="#000000">
  <path d="M 540.56 231.47 L 540.56 659.36"/>
<title>Segment l</title>
<desc>Segment l: Segment [IJ]</desc>

</g> <!-- drawing style -->
</g> <!-- clip8 -->
</g> <!-- transform -->
<g transform="matrix(1.0000, 0.0000, 0.0000, 1.0000, -46.000, -97.000)">
<clipPath id="clip3b7b0fb2-5f85-4956-aa34-0d7f9b698873">
  <path d="M 46.000 97.000 L 46.000 692.00 L 1291.0 692.00 L 1291.0 97.000 z"/>
</clipPath>
<g clip-path="url(#clip9)">
<g stroke-linejoin="round" stroke-width="2.5000" stroke-linecap="round" fill="none" stroke-opacity=".69804" stroke="#000000">
  <path d="M 469.24 659.36 L 469.24 231.47"/>
<title>Segment m</title>
<desc>Segment m: Segment [KL]</desc>

</g> <!-- drawing style -->
</g> <!-- clip9 -->
</g> <!-- transform -->
<g transform="matrix(1.0000, 0.0000, 0.0000, 1.0000, -46.000, -97.000)">
<clipPath id="clip23bd9b8e-069f-467b-a820-89c85782ca42">
  <path d="M 46.000 97.000 L 46.000 692.00 L 1291.0 692.00 L 1291.0 97.000 z"/>
</clipPath>
<g clip-path="url(#clip10)">
<g stroke-linejoin="round" stroke-width="2.5000" stroke-linecap="round" fill="none" stroke-opacity=".69804" stroke="#000000">
  <path d="M 397.92 231.47 L 397.92 659.36"/>
<title>Segment n</title>
<desc>Segment n: Segment [MN]</desc>

</g> <!-- drawing style -->
</g> <!-- clip10 -->
</g> <!-- transform -->
<g transform="matrix(1.0000, 0.0000, 0.0000, 1.0000, -46.000, -97.000)">
<clipPath id="clip3debf158-c5b1-4622-b528-90c131334de5">
  <path d="M 46.000 97.000 L 46.000 692.00 L 1291.0 692.00 L 1291.0 97.000 z"/>
</clipPath>
<g clip-path="url(#clip11)">
<g stroke-linejoin="round" stroke-width="2.5000" stroke-linecap="round" fill="none" stroke-opacity=".69804" stroke="#000000">
  <path d="M 326.61 659.36 L 326.61 231.47"/>
<title>Segment p</title>
<desc>Segment p: Segment [OP]</desc>

</g> <!-- drawing style -->
</g> <!-- clip11 -->
</g> <!-- transform -->
<g transform="matrix(1.0000, 0.0000, 0.0000, 1.0000, -46.000, -97.000)">
<clipPath id="clip5fc9a87f-2768-4004-a8cb-e87dc8099e19">
  <path d="M 46.000 97.000 L 46.000 692.00 L 1291.0 692.00 L 1291.0 97.000 z"/>
</clipPath>
<g clip-path="url(#clip12)">
<g stroke-linejoin="round" stroke-width="2.5000" stroke-linecap="round" fill="none" stroke-opacity=".69804" stroke="#000000">
  <path d="M 255.29 231.47 L 255.29 659.36"/>
<title>Segment q</title>
<desc>Segment q: Segment [QR]</desc>

</g> <!-- drawing style -->
</g> <!-- clip12 -->
</g> <!-- transform -->
<g transform="matrix(1.0000, 0.0000, 0.0000, 1.0000, -46.000, -97.000)">
<clipPath id="clipa260e002-60b4-41a2-ba37-1f55d5f747fa">
  <path d="M 46.000 97.000 L 46.000 692.00 L 1291.0 692.00 L 1291.0 97.000 z"/>
</clipPath>
<g clip-path="url(#clip13)">
<g stroke-linejoin="round" stroke-width="2.5000" stroke-linecap="round" fill="none" stroke-opacity=".69804" stroke="#000000">
  <path d="M 183.98 588.04 L 754.50 588.04"/>
<title>Segment r</title>
<desc>Segment r: Segment [ST]</desc>

</g> <!-- drawing style -->
</g> <!-- clip13 -->
</g> <!-- transform -->
<g transform="matrix(1.0000, 0.0000, 0.0000, 1.0000, -46.000, -97.000)">
<clipPath id="clipd0ce9bc5-290a-4325-b008-1052e5ef9a0e">
  <path d="M 46.000 97.000 L 46.000 692.00 L 1291.0 692.00 L 1291.0 97.000 z"/>
</clipPath>
<g clip-path="url(#clip14)">
<g stroke-linejoin="round" stroke-width="2.5000" stroke-linecap="round" fill="none" stroke-opacity=".69804" stroke="#000000">
  <path d="M 754.50 516.73 L 183.98 516.73"/>
<title>Segment s</title>
<desc>Segment s: Segment [UV]</desc>

</g> <!-- drawing style -->
</g> <!-- clip14 -->
</g> <!-- transform -->
<g transform="matrix(1.0000, 0.0000, 0.0000, 1.0000, -46.000, -97.000)">
<clipPath id="clipf5627602-e520-4702-9a40-05eb595add09">
  <path d="M 46.000 97.000 L 46.000 692.00 L 1291.0 692.00 L 1291.0 97.000 z"/>
</clipPath>
<g clip-path="url(#clip15)">
<g stroke-linejoin="round" stroke-width="2.5000" stroke-linecap="round" fill="none" stroke-opacity=".69804" stroke="#000000">
  <path d="M 183.98 445.41 L 754.50 445.41"/>
<title>Segment t</title>
<desc>Segment t: Segment [WZ]</desc>

</g> <!-- drawing style -->
</g> <!-- clip15 -->
</g> <!-- transform -->
<g transform="matrix(1.0000, 0.0000, 0.0000, 1.0000, -46.000, -97.000)">
<clipPath id="clip35ad82fc-c0a7-447b-8097-3a5a4c8507c4">
  <path d="M 46.000 97.000 L 46.000 692.00 L 1291.0 692.00 L 1291.0 97.000 z"/>
</clipPath>
<g clip-path="url(#clip16)">
<g stroke-linejoin="round" stroke-width="2.5000" stroke-linecap="round" fill="none" stroke-opacity=".69804" stroke="#000000">
  <path d="M 754.50 374.10 L 183.98 374.10"/>
<title>Segment a</title>
<desc>Segment a: Segment [A_1B_1]</desc>

</g> <!-- drawing style -->
</g> <!-- clip16 -->
</g> <!-- transform -->
<g transform="matrix(1.0000, 0.0000, 0.0000, 1.0000, -46.000, -97.000)">
<clipPath id="clipc7e05d64-d92d-4b6b-9138-eacd382f2ea9">
  <path d="M 46.000 97.000 L 46.000 692.00 L 1291.0 692.00 L 1291.0 97.000 z"/>
</clipPath>
<g clip-path="url(#clip17)">
<g stroke-linejoin="round" stroke-width="2.5000" stroke-linecap="round" fill="none" stroke-opacity=".69804" stroke="#000000">
  <path d="M 183.98 302.78 L 754.50 302.78"/>
<title>Segment b</title>
<desc>Segment b: Segment [C_1D_1]</desc>

</g> <!-- drawing style -->
</g> <!-- clip17 -->
</g> <!-- transform -->
<g transform="matrix(1.0000, 0.0000, 0.0000, 1.0000, -46.000, -97.000)">
<clipPath id="clipb0a23172-c954-41ec-8ce5-bcf525ce801b">
  <path d="M 46.000 97.000 L 46.000 692.00 L 1291.0 692.00 L 1291.0 97.000 z"/>
</clipPath>
<g clip-path="url(#clip18)">
<g stroke-linejoin="round" stroke-width="2.5000" stroke-linecap="round" fill="none" stroke-opacity=".69804" stroke="#000000">
  <path d="M 968.45 302.78 L 968.45 516.73"/>
<title>Segment d</title>
<desc>Segment d: Segment [F_1G_1]</desc>

</g> <!-- drawing style -->
</g> <!-- clip18 -->
</g> <!-- transform -->
<g transform="matrix(1.0000, 0.0000, 0.0000, 1.0000, -46.000, -97.000)">
<clipPath id="clipf8e16484-e3f2-4323-84ad-7d5966363811">
  <path d="M 46.000 97.000 L 46.000 692.00 L 1291.0 692.00 L 1291.0 97.000 z"/>
</clipPath>
<g clip-path="url(#clip19)">
<g stroke-linejoin="round" stroke-width="2.5000" stroke-linecap="round" fill="none" stroke-opacity=".69804" stroke="#000000">
  <path d="M 968.45 516.73 L 1182.4 516.73"/>
<title>Segment e</title>
<desc>Segment e: Segment [G_1H_1]</desc>

</g> <!-- drawing style -->
</g> <!-- clip19 -->
</g> <!-- transform -->
<g transform="matrix(1.0000, 0.0000, 0.0000, 1.0000, -46.000, -97.000)">
<clipPath id="clipe669b396-a13d-4da3-8fef-072f39bfcd45">
  <path d="M 46.000 97.000 L 46.000 692.00 L 1291.0 692.00 L 1291.0 97.000 z"/>
</clipPath>
<g clip-path="url(#clip20)">
<g stroke-linejoin="round" stroke-width="2.5000" stroke-linecap="round" fill="none" stroke-opacity=".69804" stroke="#000000">
  <path d="M 1182.4 516.73 L 1182.4 302.78"/>
<title>Segment f_1</title>
<desc>Segment f_1: Segment [H_1I_1]</desc>

</g> <!-- drawing style -->
</g> <!-- clip20 -->
</g> <!-- transform -->
<g transform="matrix(1.0000, 0.0000, 0.0000, 1.0000, -46.000, -97.000)">
<clipPath id="clip99435f0d-9e70-4d13-9239-4857512e721f">
  <path d="M 46.000 97.000 L 46.000 692.00 L 1291.0 692.00 L 1291.0 97.000 z"/>
</clipPath>
<g clip-path="url(#clip21)">
<g stroke-linejoin="round" stroke-width="2.5000" stroke-linecap="round" fill="none" stroke-opacity=".69804" stroke="#000000">
  <path d="M 1182.4 302.78 L 968.45 302.78"/>
<title>Segment g_1</title>
<desc>Segment g_1: Segment [I_1F_1]</desc>

</g> <!-- drawing style -->
</g> <!-- clip21 -->
</g> <!-- transform -->
<g transform="matrix(1.0000, 0.0000, 0.0000, 1.0000, -46.000, -97.000)">
<clipPath id="clipf557a70b-5abb-437e-84ba-f8511ee87ab3">
  <path d="M 46.000 97.000 L 46.000 692.00 L 1291.0 692.00 L 1291.0 97.000 z"/>
</clipPath>
<g clip-path="url(#clip22)">
<g stroke-linejoin="round" stroke-width="6.0000" stroke-linecap="round" fill="none" stroke-opacity=".69804" stroke="#000000">
  <path d="M 729.40 473.35 L 910.34 428.36"/>
<title>Vecteur u</title>
<desc>Vecteur u: Vecteur(J_1, K_1)</desc>

</g> <!-- drawing style -->
</g> <!-- clip22 -->
</g> <!-- transform -->
<g transform="matrix(1.0000, 0.0000, 0.0000, 1.0000, -46.000, -97.000)">
<clipPath id="clipd70404b6-0535-4a88-b402-412a64324a5b">
  <path d="M 46.000 97.000 L 46.000 692.00 L 1291.0 692.00 L 1291.0 97.000 z"/>
</clipPath>
<g clip-path="url(#clip23)">
<g fill-opacity=".69804" fill-rule="evenodd" stroke="none" fill="#000000">
  <path d="M 945.28 419.67 L 912.51 437.09 L 908.17 419.63 z"/>
<title>Vecteur u</title>
<desc>Vecteur u: Vecteur(J_1, K_1)</desc>

</g> <!-- drawing style -->
</g> <!-- clip23 -->
</g> <!-- transform -->
<g transform="matrix(1.0000, 0.0000, 0.0000, 1.0000, -46.000, -97.000)">
<clipPath id="clipc10c1d4d-4e8b-4373-92f6-b6900a88efce">
  <path d="M 46.000 97.000 L 46.000 692.00 L 1291.0 692.00 L 1291.0 97.000 z"/>
</clipPath>
<g clip-path="url(#clip24)">
<g stroke-linejoin="round" stroke-width="2.5000" stroke-linecap="round" fill="none" stroke-opacity=".69804" stroke="#000000">
  <path d="M 112.66 160.15 L 380.92 160.15"/>
<title>Vecteur v</title>
<desc>Vecteur v: Vecteur(L_1, M_1)</desc>

</g> <!-- drawing style -->
</g> <!-- clip24 -->
</g> <!-- transform -->
<g transform="matrix(1.0000, 0.0000, 0.0000, 1.0000, -46.000, -97.000)">
<clipPath id="clip3a24f665-42cc-4256-be95-00c619ecb512">
  <path d="M 46.000 97.000 L 46.000 692.00 L 1291.0 692.00 L 1291.0 97.000 z"/>
</clipPath>
<g clip-path="url(#clip25)">
<g fill-opacity=".69804" fill-rule="evenodd" stroke="none" fill="#000000">
  <path d="M 397.92 160.15 L 380.92 164.40 L 380.92 155.90 z"/>
<title>Vecteur v</title>
<desc>Vecteur v: Vecteur(L_1, M_1)</desc>

</g> <!-- drawing style -->
</g> <!-- clip25 -->
</g> <!-- transform -->
<g transform="matrix(1.0000, 0.0000, 0.0000, 1.0000, -46.000, -97.000)">
<clipPath id="clip8ea19b4b-1ca9-42ce-b89d-2e0307806d6d">
  <path d="M 46.000 97.000 L 46.000 692.00 L 1291.0 692.00 L 1291.0 97.000 z"/>
</clipPath>
<g clip-path="url(#clip26)">
<g stroke-linejoin="round" stroke-width="2.5000" stroke-linecap="round" fill="none" stroke-opacity=".69804" stroke="#000000">
  <path d="M 112.66 160.15 L 112.66 428.41"/>
<title>Vecteur w</title>
<desc>Vecteur w: Vecteur(L_1, N_1)</desc>

</g> <!-- drawing style -->
</g> <!-- clip26 -->
</g> <!-- transform -->
<g transform="matrix(1.0000, 0.0000, 0.0000, 1.0000, -46.000, -97.000)">
<clipPath id="clip39a88f7e-3358-4f87-a8f8-991c5f1b9f6f">
  <path d="M 46.000 97.000 L 46.000 692.00 L 1291.0 692.00 L 1291.0 97.000 z"/>
</clipPath>
<g clip-path="url(#clip27)">
<g fill-opacity=".69804" fill-rule="evenodd" stroke="none" fill="#000000">
  <path d="M 112.66 445.41 L 108.41 428.41 L 116.91 428.41 z"/>
<title>Vecteur w</title>
<desc>Vecteur w: Vecteur(L_1, N_1)</desc>

</g> <!-- drawing style -->
</g> <!-- clip27 -->
</g> <!-- transform -->
<g transform="matrix(1.0000, 0.0000, 0.0000, 1.0000, -46.000, -97.000)">
<clipPath id="clip0f6feba2-2471-4852-866f-9e1b7dc585ad">
  <path d="M 46.000 97.000 L 46.000 692.00 L 1291.0 692.00 L 1291.0 97.000 z"/>
</clipPath>
<g clip-path="url(#clip28)">
<g transform="matrix(1.0000, 0.0000, 0.0000, 1.0000, 919.00, 601.00)">
<text fill-opacity="1.0000" font-style="normal" font-family="Helvetica" font-weight="normal" stroke="none" fill="#000000" font-size="32.000" x="0" y="0">&#x00a0;          Cellule</text>
</g> <!-- transform -->
</g> <!-- clip28 -->
</g> <!-- transform -->
<g transform="matrix(1.0000, 0.0000, 0.0000, 1.0000, -46.000, -97.000)">
<clipPath id="clipdc45414f-217f-4360-90dd-e97ce6d82c4b">
  <path d="M 46.000 97.000 L 46.000 692.00 L 1291.0 692.00 L 1291.0 97.000 z"/>
</clipPath>
<g clip-path="url(#clip29)">
<g transform="matrix(1.0000, 0.0000, 0.0000, 1.0000, 919.00, 649.00)">
<text fill-opacity="1.0000" font-style="normal" font-family="Helvetica" font-weight="normal" stroke="none" fill="#000000" font-size="32.000" x="0" y="0">de coordonn&#x00e9;es (3 ; 6)</text>
</g> <!-- transform -->
</g> <!-- clip29 -->
</g> <!-- transform -->
<g transform="matrix(1.0000, 0.0000, 0.0000, 1.0000, -46.000, -97.000)">
<clipPath id="clip4ec7039e-7b91-41ac-9fd5-a58edeeaca12">
  <path d="M 46.000 97.000 L 46.000 692.00 L 1291.0 692.00 L 1291.0 97.000 z"/>
</clipPath>
<g clip-path="url(#clip30)">
<g transform="matrix(1.0000, 0.0000, 0.0000, 1.0000, 1038.0, 549.00)">
<text fill-opacity="1.0000" font-style="normal" font-family="Helvetica" font-weight="normal" stroke="none" fill="#000000" font-size="22.000" x="0" y="0">Mur Sud</text>
</g> <!-- transform -->
</g> <!-- clip30 -->
</g> <!-- transform -->
<g transform="matrix(1.0000, 0.0000, 0.0000, 1.0000, -46.000, -97.000)">
<clipPath id="clip6a4653c9-950c-4500-bd85-00b34dc77773">
  <path d="M 46.000 97.000 L 46.000 692.00 L 1291.0 692.00 L 1291.0 97.000 z"/>
</clipPath>
<g clip-path="url(#clip31)">
<g transform="matrix(1.0000, 0.0000, 0.0000, 1.0000, 1194.0, 420.00)">
<text fill-opacity="1.0000" font-style="normal" font-family="Helvetica" font-weight="normal" stroke="none" fill="#000000" font-size="22.000" x="0" y="0">Mur Est</text>
</g> <!-- transform -->
</g> <!-- clip31 -->
</g> <!-- transform -->
<g transform="matrix(1.0000, 0.0000, 0.0000, 1.0000, -46.000, -97.000)">
<clipPath id="clip6831d5d0-3ffa-41df-837a-6cf4f623faff">
  <path d="M 46.000 97.000 L 46.000 692.00 L 1291.0 692.00 L 1291.0 97.000 z"/>
</clipPath>
<g clip-path="url(#clip32)">
<g transform="matrix(1.0000, 0.0000, 0.0000, 1.0000, 852.00, 401.00)">
<text fill-opacity="1.0000" font-style="normal" font-family="Helvetica" font-weight="normal" stroke="none" fill="#000000" font-size="22.000" x="0" y="0">Mur Ouest</text>
</g> <!-- transform -->
</g> <!-- clip32 -->
</g> <!-- transform -->
<g transform="matrix(1.0000, 0.0000, 0.0000, 1.0000, -46.000, -97.000)">
<clipPath id="clip7468e7a8-912e-448c-b96a-bf777c4c787c">
  <path d="M 46.000 97.000 L 46.000 692.00 L 1291.0 692.00 L 1291.0 97.000 z"/>
</clipPath>
<g clip-path="url(#clip33)">
<g transform="matrix(1.0000, 0.0000, 0.0000, 1.0000, 1019.0, 282.00)">
<text fill-opacity="1.0000" font-style="normal" font-family="Helvetica" font-weight="normal" stroke="none" fill="#000000" font-size="22.000" x="0" y="0">Mur Nord</text>
</g> <!-- transform -->
</g> <!-- clip33 -->
</g> <!-- transform -->
<g transform="matrix(1.0000, 0.0000, 0.0000, 1.0000, -46.000, -97.000)">
<clipPath id="clip864d8174-1093-47e7-bc5b-b5d9a0a5bbaa">
  <path d="M 46.000 97.000 L 46.000 692.00 L 1291.0 692.00 L 1291.0 97.000 z"/>
</clipPath>
<g clip-path="url(#clip34)">
<g transform="matrix(1.0000, 0.0000, 0.0000, 1.0000, 414.00, 168.00)">
<text fill-opacity="1.0000" font-style="normal" font-family="Helvetica" font-weight="normal" stroke="none" fill="#000000" font-size="22.000" x="0" y="0">Colonne</text>
</g> <!-- transform -->
</g> <!-- clip34 -->
</g> <!-- transform -->
<g transform="matrix(1.0000, 0.0000, 0.0000, 1.0000, -46.000, -97.000)">
<clipPath id="clip46953219-168b-4d8a-8d37-0e47f1359631">
  <path d="M 46.000 97.000 L 46.000 692.00 L 1291.0 692.00 L 1291.0 97.000 z"/>
</clipPath>
<g clip-path="url(#clip35)">
<g transform="matrix(1.0000, 0.0000, 0.0000, 1.0000, 86.000, 473.00)">
<text fill-opacity="1.0000" font-style="normal" font-family="Helvetica" font-weight="normal" stroke="none" fill="#000000" font-size="22.000" x="0" y="0">Ligne</text>
</g> <!-- transform -->
</g> <!-- clip35 -->
</g> <!-- transform -->
<g transform="matrix(1.0000, 0.0000, 0.0000, 1.0000, -46.000, -97.000)">
<clipPath id="clipd20809d6-02eb-4247-a00b-e552286633ba">
  <path d="M 46.000 97.000 L 46.000 692.00 L 1291.0 692.00 L 1291.0 97.000 z"/>
</clipPath>
<g clip-path="url(#clip36)">
<g transform="matrix(1.0000, 0.0000, 0.0000, 1.0000, 94.000, 155.00)">
<text fill-opacity="1.0000" font-style="normal" font-family="Helvetica" font-weight="normal" stroke="none" fill="#000000" font-size="22.000" x="0" y="0">0</text>
</g> <!-- transform -->
</g> <!-- clip36 -->
</g> <!-- transform -->
</g><!-- layer0 -->
<defs>
<font id="Helvetica" horiz-adv-x="0" >
<font-face font-family="Helvetica" font-weight="normal" font-style="normal" font-size="100.00" units-per-em="100.00" ascent="100.53711" descent="21.972656" />
<missing-glyph  d=""/>
<glyph unicode="&#x0045;" horiz-adv-x="66.699" d="M 7.9062 -0.0000 L 7.9062 71.578 L 59.672 71.578 L 59.672 63.141 L 17.391 63.141 L 17.391 41.219 L 56.984 41.219 L 56.984 32.812 L 17.391 32.812 L 17.391 8.4531 L 61.328 8.4531 L 61.328 -0.0000 L 7.9062 -0.0000 z"/>
<glyph unicode="&#x0063;" horiz-adv-x="50.000" d="M 40.438 19.000 L 49.078 17.875 Q 47.656 8.9375 41.820 3.8828 Q 35.984 -1.1719 27.484 -1.1719 Q 16.844 -1.1719 10.375 5.7891 Q 3.9062 12.750 3.9062 25.734 Q 3.9062 34.125 6.6875 40.430 Q 9.4688 46.734 15.156 49.883 Q 20.844 53.031 27.547 53.031 Q 35.984 53.031 41.359 48.758 Q 46.734 44.484 48.250 36.625 L 39.703 35.297 Q 38.484 40.531 35.383 43.164 Q 32.281 45.797 27.875 45.797 Q 21.234 45.797 17.086 41.039 Q 12.938 36.281 12.938 25.984 Q 12.938 15.531 16.945 10.797 Q 20.953 6.0625 27.391 6.0625 Q 32.562 6.0625 36.031 9.2344 Q 39.500 12.406 40.438 19.000 z"/>
<glyph unicode="&#x0043;" horiz-adv-x="72.217" d="M 58.797 25.094 L 68.266 22.703 Q 65.281 11.031 57.547 4.9062 Q 49.812 -1.2188 38.625 -1.2188 Q 27.047 -1.2188 19.797 3.4922 Q 12.547 8.2031 8.7656 17.141 Q 4.9844 26.078 4.9844 36.328 Q 4.9844 47.516 9.2578 55.836 Q 13.531 64.156 21.414 68.477 Q 29.297 72.797 38.766 72.797 Q 49.516 72.797 56.836 67.328 Q 64.156 61.859 67.047 51.953 L 57.719 49.750 Q 55.219 57.562 50.484 61.133 Q 45.750 64.703 38.578 64.703 Q 30.328 64.703 24.781 60.742 Q 19.234 56.781 16.992 50.117 Q 14.750 43.453 14.750 36.375 Q 14.750 27.250 17.406 20.438 Q 20.062 13.625 25.680 10.258 Q 31.297 6.8906 37.844 6.8906 Q 45.797 6.8906 51.320 11.477 Q 56.844 16.062 58.797 25.094 z"/>
<glyph unicode="&#x006c;" horiz-adv-x="22.217" d="M 6.3906 -0.0000 L 6.3906 71.578 L 15.188 71.578 L 15.188 -0.0000 L 6.3906 -0.0000 z"/>
<glyph unicode="&#x0020;" horiz-adv-x="27.783" d=""/>
<glyph unicode="&#x0069;" horiz-adv-x="22.217" d="M 6.6406 61.469 L 6.6406 71.578 L 15.438 71.578 L 15.438 61.469 L 6.6406 61.469 z M 6.6406 -0.0000 L 6.6406 51.859 L 15.438 51.859 L 15.438 -0.0000 L 6.6406 -0.0000 z"/>
<glyph unicode="&#x0067;" horiz-adv-x="55.615" d="M 4.9844 -4.2969 L 13.531 -5.5625 Q 14.062 -9.5156 16.500 -11.328 Q 19.781 -13.766 25.438 -13.766 Q 31.547 -13.766 34.867 -11.328 Q 38.188 -8.8906 39.359 -4.5000 Q 40.047 -1.8125 39.984 6.7812 Q 34.234 -0.0000 25.641 -0.0000 Q 14.938 -0.0000 9.0781 7.7188 Q 3.2188 15.438 3.2188 26.219 Q 3.2188 33.641 5.9062 39.914 Q 8.5938 46.188 13.695 49.609 Q 18.797 53.031 25.688 53.031 Q 34.859 53.031 40.828 45.609 L 40.828 51.859 L 48.922 51.859 L 48.922 7.0312 Q 48.922 -5.0781 46.461 -10.133 Q 44.000 -15.188 38.648 -18.117 Q 33.297 -21.047 25.484 -21.047 Q 16.219 -21.047 10.500 -16.875 Q 4.7812 -12.703 4.9844 -4.2969 z M 12.250 26.859 Q 12.250 16.656 16.305 11.969 Q 20.359 7.2812 26.469 7.2812 Q 32.516 7.2812 36.617 11.945 Q 40.719 16.609 40.719 26.562 Q 40.719 36.078 36.500 40.914 Q 32.281 45.750 26.312 45.750 Q 20.453 45.750 16.352 40.992 Q 12.250 36.234 12.250 26.859 z"/>
<glyph unicode="&#x0065;" horiz-adv-x="55.615" d="M 42.094 16.703 L 51.172 15.578 Q 49.031 7.6250 43.219 3.2266 Q 37.406 -1.1719 28.375 -1.1719 Q 17.000 -1.1719 10.328 5.8359 Q 3.6562 12.844 3.6562 25.484 Q 3.6562 38.578 10.398 45.805 Q 17.141 53.031 27.875 53.031 Q 38.281 53.031 44.875 45.953 Q 51.469 38.875 51.469 26.031 Q 51.469 25.250 51.422 23.688 L 12.750 23.688 Q 13.234 15.141 17.578 10.602 Q 21.922 6.0625 28.422 6.0625 Q 33.250 6.0625 36.672 8.6016 Q 40.094 11.141 42.094 16.703 z M 13.234 30.906 L 42.188 30.906 Q 41.609 37.453 38.875 40.719 Q 34.672 45.797 27.984 45.797 Q 21.922 45.797 17.797 41.750 Q 13.672 37.703 13.234 30.906 z"/>
<glyph unicode="&#x0064;" horiz-adv-x="55.615" d="M 40.234 -0.0000 L 40.234 6.5469 Q 35.297 -1.1719 25.734 -1.1719 Q 19.531 -1.1719 14.328 2.2500 Q 9.1250 5.6719 6.2734 11.797 Q 3.4219 17.922 3.4219 25.875 Q 3.4219 33.641 6.0078 39.969 Q 8.5938 46.297 13.773 49.664 Q 18.953 53.031 25.344 53.031 Q 30.031 53.031 33.695 51.055 Q 37.359 49.078 39.656 45.906 L 39.656 71.578 L 48.391 71.578 L 48.391 -0.0000 L 40.234 -0.0000 z M 12.453 25.875 Q 12.453 15.922 16.648 10.992 Q 20.844 6.0625 26.562 6.0625 Q 32.328 6.0625 36.352 10.773 Q 40.375 15.484 40.375 25.141 Q 40.375 35.797 36.273 40.773 Q 32.172 45.750 26.172 45.750 Q 20.312 45.750 16.383 40.969 Q 12.453 36.188 12.453 25.875 z"/>
<glyph unicode="&#x0030;" horiz-adv-x="55.615" d="M 4.1562 35.297 Q 4.1562 48.000 6.7656 55.742 Q 9.3750 63.484 14.523 67.680 Q 19.672 71.875 27.484 71.875 Q 33.250 71.875 37.594 69.555 Q 41.938 67.234 44.773 62.867 Q 47.609 58.500 49.219 52.227 Q 50.828 45.953 50.828 35.297 Q 50.828 22.703 48.242 14.969 Q 45.656 7.2344 40.508 3.0078 Q 35.359 -1.2188 27.484 -1.2188 Q 17.141 -1.2188 11.234 6.2031 Q 4.1562 15.141 4.1562 35.297 z M 13.188 35.297 Q 13.188 17.672 17.312 11.836 Q 21.438 6.0000 27.484 6.0000 Q 33.547 6.0000 37.672 11.859 Q 41.797 17.719 41.797 35.297 Q 41.797 52.984 37.672 58.789 Q 33.547 64.594 27.391 64.594 Q 21.344 64.594 17.719 59.469 Q 13.188 52.938 13.188 35.297 z"/>
<glyph unicode="&#x004f;" horiz-adv-x="77.783" d="M 4.8281 34.859 Q 4.8281 52.688 14.398 62.773 Q 23.969 72.859 39.109 72.859 Q 49.031 72.859 56.984 68.117 Q 64.938 63.375 69.117 54.906 Q 73.297 46.438 73.297 35.688 Q 73.297 24.812 68.898 16.219 Q 64.500 7.6250 56.445 3.2031 Q 48.391 -1.2188 39.062 -1.2188 Q 28.953 -1.2188 20.992 3.6641 Q 13.031 8.5469 8.9297 16.992 Q 4.8281 25.438 4.8281 34.859 z M 14.594 34.719 Q 14.594 21.781 21.555 14.336 Q 28.516 6.8906 39.016 6.8906 Q 49.703 6.8906 56.617 14.406 Q 63.531 21.922 63.531 35.750 Q 63.531 44.484 60.578 51.000 Q 57.625 57.516 51.930 61.109 Q 46.234 64.703 39.156 64.703 Q 29.109 64.703 21.852 57.789 Q 14.594 50.875 14.594 34.719 z"/>
<glyph unicode="&#x004e;" horiz-adv-x="72.217" d="M 7.6250 -0.0000 L 7.6250 71.578 L 17.328 71.578 L 54.938 15.375 L 54.938 71.578 L 64.016 71.578 L 64.016 -0.0000 L 54.297 -0.0000 L 16.703 56.250 L 16.703 -0.0000 L 7.6250 -0.0000 z"/>
<glyph unicode="&#x004d;" horiz-adv-x="83.301" d="M 7.4219 -0.0000 L 7.4219 71.578 L 21.688 71.578 L 38.625 20.906 Q 40.969 13.812 42.047 10.297 Q 43.266 14.203 45.844 21.781 L 62.984 71.578 L 75.734 71.578 L 75.734 -0.0000 L 66.609 -0.0000 L 66.609 59.906 L 45.797 -0.0000 L 37.250 -0.0000 L 16.547 60.938 L 16.547 -0.0000 L 7.4219 -0.0000 z"/>
<glyph unicode="&#x004c;" horiz-adv-x="55.615" d="M 7.3281 -0.0000 L 7.3281 71.578 L 16.797 71.578 L 16.797 8.4531 L 52.047 8.4531 L 52.047 -0.0000 L 7.3281 -0.0000 z"/>
<glyph unicode="&#x0075;" horiz-adv-x="55.615" d="M 40.578 -0.0000 L 40.578 7.6250 Q 34.516 -1.1719 24.125 -1.1719 Q 19.531 -1.1719 15.555 .58594 Q 11.578 2.3438 9.6484 5.0078 Q 7.7188 7.6719 6.9375 11.531 Q 6.3906 14.109 6.3906 19.734 L 6.3906 51.859 L 15.188 51.859 L 15.188 23.094 Q 15.188 16.219 15.719 13.812 Q 16.547 10.359 19.234 8.3750 Q 21.922 6.3906 25.875 6.3906 Q 29.828 6.3906 33.297 8.4219 Q 36.766 10.453 38.211 13.945 Q 39.656 17.438 39.656 24.078 L 39.656 51.859 L 48.438 51.859 L 48.438 -0.0000 L 40.578 -0.0000 z"/>
<glyph unicode="&#x0074;" horiz-adv-x="27.783" d="M 25.781 7.8594 L 27.047 .093750 Q 23.344 -.68750 20.406 -.68750 Q 15.625 -.68750 12.992 .82812 Q 10.359 2.3438 9.2812 4.8125 Q 8.2031 7.2812 8.2031 15.188 L 8.2031 45.016 L 1.7656 45.016 L 1.7656 51.859 L 8.2031 51.859 L 8.2031 64.703 L 16.938 69.969 L 16.938 51.859 L 25.781 51.859 L 25.781 45.016 L 16.938 45.016 L 16.938 14.703 Q 16.938 10.938 17.406 9.8672 Q 17.875 8.7969 18.922 8.1562 Q 19.969 7.5156 21.922 7.5156 Q 23.391 7.5156 25.781 7.8594 z"/>
<glyph unicode="&#x0029;" horiz-adv-x="33.301" d="M 12.359 -21.047 L 6.0625 -21.047 Q 20.656 2.3906 20.656 25.875 Q 20.656 35.062 18.562 44.094 Q 16.891 51.422 13.922 58.156 Q 12.016 62.547 6.0625 72.797 L 12.359 72.797 Q 21.531 60.547 25.922 48.188 Q 29.688 37.547 29.688 25.922 Q 29.688 12.750 24.633 .44531 Q 19.578 -11.859 12.359 -21.047 z"/>
<glyph unicode="&#x0073;" horiz-adv-x="50.000" d="M 3.0781 15.484 L 11.766 16.844 Q 12.500 11.625 15.844 8.8438 Q 19.188 6.0625 25.203 6.0625 Q 31.250 6.0625 34.180 8.5234 Q 37.109 10.984 37.109 14.312 Q 37.109 17.281 34.516 19.000 Q 32.719 20.172 25.531 21.969 Q 15.875 24.422 12.141 26.203 Q 8.4062 27.984 6.4766 31.133 Q 4.5469 34.281 4.5469 38.094 Q 4.5469 41.547 6.1328 44.508 Q 7.7188 47.469 10.453 49.422 Q 12.500 50.922 16.039 51.977 Q 19.578 53.031 23.641 53.031 Q 29.734 53.031 34.352 51.273 Q 38.969 49.516 41.164 46.508 Q 43.359 43.500 44.188 38.484 L 35.594 37.312 Q 35.016 41.312 32.203 43.555 Q 29.391 45.797 24.266 45.797 Q 18.219 45.797 15.625 43.797 Q 13.031 41.797 13.031 39.109 Q 13.031 37.406 14.109 36.031 Q 15.188 34.625 17.484 33.688 Q 18.797 33.203 25.250 31.453 Q 34.578 28.953 38.258 27.367 Q 41.938 25.781 44.039 22.758 Q 46.141 19.734 46.141 15.234 Q 46.141 10.844 43.578 6.9609 Q 41.016 3.0781 36.180 .95312 Q 31.344 -1.1719 25.250 -1.1719 Q 15.141 -1.1719 9.8438 3.0312 Q 4.5469 7.2344 3.0781 15.484 z"/>
<glyph unicode="&#x0028;" horiz-adv-x="33.301" d="M 23.391 -21.047 Q 16.109 -11.859 11.086 .44531 Q 6.0625 12.750 6.0625 25.922 Q 6.0625 37.547 9.8125 48.188 Q 14.203 60.547 23.391 72.797 L 29.688 72.797 Q 23.781 62.641 21.875 58.297 Q 18.891 51.562 17.188 44.234 Q 15.094 35.109 15.094 25.875 Q 15.094 2.3906 29.688 -21.047 L 23.391 -21.047 z"/>
<glyph unicode="&#x0072;" horiz-adv-x="33.301" d="M 6.5000 -0.0000 L 6.5000 51.859 L 14.406 51.859 L 14.406 44.000 Q 17.438 49.516 20.000 51.273 Q 22.562 53.031 25.641 53.031 Q 30.078 53.031 34.672 50.203 L 31.641 42.047 Q 28.422 43.953 25.203 43.953 Q 22.312 43.953 20.016 42.219 Q 17.719 40.484 16.750 37.406 Q 15.281 32.719 15.281 27.156 L 15.281 -0.0000 L 6.5000 -0.0000 z"/>
<glyph unicode="&#x006f;" horiz-adv-x="55.615" d="M 3.3281 25.922 Q 3.3281 40.328 11.328 47.266 Q 18.016 53.031 27.641 53.031 Q 38.328 53.031 45.117 46.023 Q 51.906 39.016 51.906 26.656 Q 51.906 16.656 48.906 10.914 Q 45.906 5.1719 40.164 2.0000 Q 34.422 -1.1719 27.641 -1.1719 Q 16.750 -1.1719 10.039 5.8125 Q 3.3281 12.797 3.3281 25.922 z M 12.359 25.922 Q 12.359 15.969 16.703 11.016 Q 21.047 6.0625 27.641 6.0625 Q 34.188 6.0625 38.531 11.039 Q 42.875 16.016 42.875 26.219 Q 42.875 35.844 38.500 40.797 Q 34.125 45.750 27.641 45.750 Q 21.047 45.750 16.703 40.820 Q 12.359 35.891 12.359 25.922 z"/>
<glyph unicode="&#x006e;" horiz-adv-x="55.615" d="M 6.5938 -0.0000 L 6.5938 51.859 L 14.500 51.859 L 14.500 44.484 Q 20.219 53.031 31.000 53.031 Q 35.688 53.031 39.625 51.344 Q 43.562 49.656 45.516 46.922 Q 47.469 44.188 48.250 40.438 Q 48.734 37.984 48.734 31.891 L 48.734 -0.0000 L 39.938 -0.0000 L 39.938 31.547 Q 39.938 36.922 38.914 39.578 Q 37.891 42.234 35.281 43.820 Q 32.672 45.406 29.156 45.406 Q 23.531 45.406 19.453 41.844 Q 15.375 38.281 15.375 28.328 L 15.375 -0.0000 L 6.5938 -0.0000 z"/>
<glyph unicode="&#x003b;" horiz-adv-x="27.783" d="M 8.8906 41.844 L 8.8906 51.859 L 18.891 51.859 L 18.891 41.844 L 8.8906 41.844 z M 8.8906 -0.0000 L 8.8906 10.016 L 18.891 10.016 L 18.891 -0.0000 Q 18.891 -5.5156 16.938 -8.9141 Q 14.984 -12.312 10.750 -14.156 L 8.2969 -10.406 Q 11.078 -9.1875 12.398 -6.8125 Q 13.719 -4.4375 13.875 -0.0000 L 8.8906 -0.0000 z"/>
<glyph unicode="&#x00e9;" horiz-adv-x="55.615" d="M 42.094 16.703 L 51.172 15.578 Q 49.031 7.6250 43.219 3.2266 Q 37.406 -1.1719 28.375 -1.1719 Q 17.000 -1.1719 10.328 5.8359 Q 3.6562 12.844 3.6562 25.484 Q 3.6562 38.578 10.398 45.805 Q 17.141 53.031 27.875 53.031 Q 38.281 53.031 44.875 45.953 Q 51.469 38.875 51.469 26.031 Q 51.469 25.250 51.422 23.688 L 12.750 23.688 Q 13.234 15.141 17.578 10.602 Q 21.922 6.0625 28.422 6.0625 Q 33.250 6.0625 36.672 8.6016 Q 40.094 11.141 42.094 16.703 z M 13.234 30.906 L 42.188 30.906 Q 41.609 37.453 38.875 40.719 Q 34.672 45.797 27.984 45.797 Q 21.922 45.797 17.797 41.750 Q 13.672 37.703 13.234 30.906 z M 20.734 58.000 L 27.219 71.672 L 38.750 71.672 L 28.000 58.000 L 20.734 58.000 z"/>
<glyph unicode="&#x0036;" horiz-adv-x="55.615" d="M 49.750 54.047 L 41.016 53.375 Q 39.844 58.547 37.703 60.891 Q 34.125 64.656 28.906 64.656 Q 24.703 64.656 21.531 62.312 Q 17.391 59.281 14.992 53.469 Q 12.594 47.656 12.500 36.922 Q 15.672 41.750 20.266 44.094 Q 24.859 46.438 29.891 46.438 Q 38.672 46.438 44.852 39.969 Q 51.031 33.500 51.031 23.250 Q 51.031 16.500 48.125 10.719 Q 45.219 4.9375 40.141 1.8594 Q 35.062 -1.2188 28.609 -1.2188 Q 17.625 -1.2188 10.695 6.8594 Q 3.7656 14.938 3.7656 33.500 Q 3.7656 54.250 11.422 63.672 Q 18.109 71.875 29.438 71.875 Q 37.891 71.875 43.289 67.141 Q 48.688 62.406 49.750 54.047 z M 13.875 23.188 Q 13.875 18.656 15.797 14.508 Q 17.719 10.359 21.188 8.1797 Q 24.656 6.0000 28.469 6.0000 Q 34.031 6.0000 38.039 10.492 Q 42.047 14.984 42.047 22.703 Q 42.047 30.125 38.086 34.398 Q 34.125 38.672 28.125 38.672 Q 22.172 38.672 18.023 34.398 Q 13.875 30.125 13.875 23.188 z"/>
<glyph unicode="&#x0053;" horiz-adv-x="66.699" d="M 4.5000 23.000 L 13.422 23.781 Q 14.062 18.406 16.383 14.969 Q 18.703 11.531 23.586 9.4062 Q 28.469 7.2812 34.578 7.2812 Q 39.984 7.2812 44.141 8.8906 Q 48.297 10.500 50.320 13.305 Q 52.344 16.109 52.344 19.438 Q 52.344 22.797 50.391 25.312 Q 48.438 27.828 43.953 29.547 Q 41.062 30.672 31.203 33.039 Q 21.344 35.406 17.391 37.500 Q 12.250 40.188 9.7422 44.164 Q 7.2344 48.141 7.2344 53.078 Q 7.2344 58.500 10.305 63.211 Q 13.375 67.922 19.289 70.359 Q 25.203 72.797 32.422 72.797 Q 40.375 72.797 46.461 70.234 Q 52.547 67.672 55.812 62.695 Q 59.078 57.719 59.328 51.422 L 50.250 50.734 Q 49.516 57.516 45.289 60.984 Q 41.062 64.453 32.812 64.453 Q 24.219 64.453 20.289 61.305 Q 16.359 58.156 16.359 53.719 Q 16.359 49.859 19.141 47.359 Q 21.875 44.875 33.422 42.266 Q 44.969 39.656 49.266 37.703 Q 55.516 34.812 58.492 30.398 Q 61.469 25.984 61.469 20.219 Q 61.469 14.500 58.203 9.4453 Q 54.938 4.3906 48.805 1.5859 Q 42.672 -1.2188 35.016 -1.2188 Q 25.297 -1.2188 18.727 1.6094 Q 12.156 4.4375 8.4219 10.133 Q 4.6875 15.828 4.5000 23.000 z"/>
<glyph unicode="&#x0033;" horiz-adv-x="55.615" d="M 4.2031 18.891 L 12.984 20.062 Q 14.500 12.594 18.141 9.2969 Q 21.781 6.0000 27.000 6.0000 Q 33.203 6.0000 37.477 10.297 Q 41.750 14.594 41.750 20.953 Q 41.750 27.000 37.797 30.930 Q 33.844 34.859 27.734 34.859 Q 25.250 34.859 21.531 33.891 L 22.516 41.609 Q 23.391 41.500 23.922 41.500 Q 29.547 41.500 34.039 44.430 Q 38.531 47.359 38.531 53.469 Q 38.531 58.297 35.258 61.477 Q 31.984 64.656 26.812 64.656 Q 21.688 64.656 18.266 61.430 Q 14.844 58.203 13.875 51.766 L 5.0781 53.328 Q 6.6875 62.156 12.398 67.016 Q 18.109 71.875 26.609 71.875 Q 32.469 71.875 37.398 69.359 Q 42.328 66.844 44.945 62.500 Q 47.562 58.156 47.562 53.266 Q 47.562 48.641 45.070 44.828 Q 42.578 41.016 37.703 38.766 Q 44.047 37.312 47.562 32.695 Q 51.078 28.078 51.078 21.141 Q 51.078 11.766 44.242 5.2500 Q 37.406 -1.2656 26.953 -1.2656 Q 17.531 -1.2656 11.305 4.3516 Q 5.0781 9.9688 4.2031 18.891 z"/>
</font>

</defs> <!-- font definitions -->
</g> <!-- default stroke -->
</svg> <!-- bounding box -->
