<?xml version="1.0" encoding="UTF-8"?>
<svg xmlns="http://www.w3.org/2000/svg" xmlns:xlink="http://www.w3.org/1999/xlink"
     width="160" height="80" viewBox="0 -80 160 80">
<defs>
</defs>
<rect x="0" y="-80" width="160" height="80" fill="#ffffff" stroke="black" stroke-width="1" />
<path d="M0,-80 L0,-60" stroke="black" stroke-width="1" fill="none" />
<path d="M0,-80 L20,-80" stroke="black" stroke-width="1" fill="none" />
<path d="M20,-80 L40,-80" stroke="black" stroke-width="1" fill="none" />
<path d="M40,-80 L60,-80" stroke="black" stroke-width="1" fill="none" />
<path d="M60,-80 L80,-80" stroke="black" stroke-width="1" fill="none" />
<path d="M80,-80 L100,-80" stroke="black" stroke-width="1" fill="none" />
<path d="M100,-80 L120,-80" stroke="black" stroke-width="1" fill="none" />
<path d="M120,-80 L140,-80" stroke="black" stroke-width="1" fill="none" />
<path d="M140,-80 L160,-80" stroke="black" stroke-width="1" fill="none" />
<path d="M0,-60 L0,-40" stroke="black" stroke-width="1" fill="none" />
<path d="M20,-60 L40,-60" stroke="black" stroke-width="1" fill="none" />
<path d="M40,-60 L40,-40" stroke="black" stroke-width="1" fill="none" />
<path d="M60,-60 L80,-60" stroke="black" stroke-width="1" fill="none" />
<path d="M80,-60 L80,-40" stroke="black" stroke-width="1" fill="none" />
<path d="M100,-60 L120,-60" stroke="black" stroke-width="1" fill="none" />
<path d="M120,-60 L120,-40" stroke="black" stroke-width="1" fill="none" />
<path d="M140,-60 L160,-60" stroke="black" stroke-width="1" fill="none" />
<path d="M0,-40 L0,-20" stroke="black" stroke-width="1" fill="none" />
<path d="M20,-40 L40,-40" stroke="black" stroke-width="1" fill="none" />
<path d="M40,-40 L60,-40" stroke="black" stroke-width="1" fill="none" />
<path d="M60,-40 L80,-40" stroke="black" stroke-width="1" fill="none" />
<path d="M80,-40 L80,-20" stroke="black" stroke-width="1" fill="none" />
<path d="M100,-40 L120,-40" stroke="black" stroke-width="1" fill="none" />
<path d="M120,-40 L140,-40" stroke="black" stroke-width="1" fill="none" />
<path d="M140,-40 L160,-40" stroke="black" stroke-width="1" fill="none" />
<path d="M0,-20 L0,0" stroke="black" stroke-width="1" fill="none" />
<path d="M20,-20 L40,-20" stroke="black" stroke-width="1" fill="none" />
<path d="M40,-20 L40,0" stroke="black" stroke-width="1" fill="none" />
<path d="M60,-20 L80,-20" stroke="black" stroke-width="1" fill="none" />
<path d="M80,-20 L80,0" stroke="black" stroke-width="1" fill="none" />
<path d="M100,-20 L120,-20" stroke="black" stroke-width="1" fill="none" />
<path d="M120,-20 L120,0" stroke="black" stroke-width="1" fill="none" />
<path d="M140,-20 L160,-20" stroke="black" stroke-width="1" fill="none" />
</svg>