<?xml version='1.0' encoding='UTF-8' standalone='no'?>
<svg 
    xmlns='http://www.w3.org/2000/svg'
    width='1300'
    height='616'
    shape-rendering='geometricPrecision'
    version='1.0'>
  <defs>
    <filter id='f2' x='0' y='0' width='200%' height='200%'>
      <feOffset result='offOut' in='SourceGraphic' dx='5' dy='5' />
      <feGaussianBlur result='blurOut' in='offOut' stdDeviation='3' />
      <feBlend in='SourceGraphic' in2='blurOut' mode='normal' />
    </filter>
  </defs>
  <g stroke-width='1' stroke-linecap='square' stroke-linejoin='round'>
    <rect x='0' y='0' width='1300' height='616' style='fill: #ffffff'/>
    <path stroke='gray' fill='gray' filter='url(#f2)' d='M1030.0 126.0 L1030.0 322.0 L650.0 322.0 L650.0 126.0 z' />
    <path stroke='gray' fill='gray' filter='url(#f2)' d='M50.0 378.0 L50.0 546.0 L430.0 546.0 L430.0 378.0 z' />
    <path stroke='gray' fill='gray' filter='url(#f2)' d='M330.0 126.0 L330.0 266.0 L50.0 266.0 L50.0 126.0 z' />
    <path stroke='gray' fill='gray' filter='url(#f2)' d='M650.0 434.0 L650.0 546.0 L990.0 546.0 L990.0 434.0 z' />
    <path stroke='gray' fill='gray' filter='url(#f2)' d='M50.0 322.0 L50.0 378.0 L430.0 378.0 L430.0 322.0 z' />
    <path stroke='gray' fill='gray' filter='url(#f2)' d='M1030.0 70.0 L1030.0 126.0 L650.0 126.0 L650.0 70.0 z' />
    <path stroke='gray' fill='gray' filter='url(#f2)' d='M650.0 378.0 L650.0 434.0 L990.0 434.0 L990.0 378.0 z' />
    <path stroke='gray' fill='gray' filter='url(#f2)' d='M50.0 70.0 L50.0 126.0 L330.0 126.0 L330.0 70.0 z' />
    <path stroke='#000000' stroke-width='2,000000' stroke-linecap='round' stroke-linejoin='round' fill='white' d='M1030.0 126.0 L1030.0 322.0 L650.0 322.0 L650.0 126.0 z' />
    <path stroke='#000000' stroke-width='2,000000' stroke-linecap='round' stroke-linejoin='round' fill='white' d='M50.0 378.0 L50.0 546.0 L430.0 546.0 L430.0 378.0 z' />
    <path stroke='#000000' stroke-width='2,000000' stroke-linecap='round' stroke-linejoin='round' fill='white' d='M330.0 126.0 L330.0 266.0 L50.0 266.0 L50.0 126.0 z' />
    <path stroke='#000000' stroke-width='2,000000' stroke-linecap='round' stroke-linejoin='round' fill='white' d='M650.0 434.0 L650.0 546.0 L990.0 546.0 L990.0 434.0 z' />
    <path stroke='#000000' stroke-width='2,000000' stroke-linecap='round' stroke-linejoin='round' fill='white' d='M50.0 322.0 L50.0 378.0 L430.0 378.0 L430.0 322.0 z' />
    <path stroke='#000000' stroke-width='2,000000' stroke-linecap='round' stroke-linejoin='round' fill='white' d='M1030.0 70.0 L1030.0 126.0 L650.0 126.0 L650.0 70.0 z' />
    <path stroke='#000000' stroke-width='2,000000' stroke-linecap='round' stroke-linejoin='round' fill='white' d='M650.0 378.0 L650.0 434.0 L990.0 434.0 L990.0 378.0 z' />
    <path stroke='#000000' stroke-width='2,000000' stroke-linecap='round' stroke-linejoin='round' fill='white' d='M50.0 70.0 L50.0 126.0 L330.0 126.0 L330.0 70.0 z' />
    <path stroke='#000000' stroke-width='2,000000' stroke-linecap='round' stroke-linejoin='round' fill='none' d='M650.0 210.0 L500.0 210.0 Q490.0 210.0 490.0 224.0 L490.0 392.0 L490.0 392.0 Q490.0 406.0 480.0 406.0 L450.0 406.0 L450.0 406.0 ' />
    <path stroke='none' stroke-width='2,000000' stroke-linecap='round' stroke-linejoin='round' fill='#000000' d='M360.0 140.0 L340.0 154.0 L360.0 168.0 z' />
    <path stroke='none' stroke-width='2,000000' stroke-linecap='round' stroke-linejoin='round' fill='#000000' d='M460.0 392.0 L440.0 406.0 L460.0 420.0 z' />
    <path stroke='none' stroke-width='2,000000' stroke-linecap='round' stroke-linejoin='round' fill='#000000' d='M620.0 448.0 L640.0 462.0 L620.0 476.0 z' />
    <path stroke='#000000' stroke-width='2,000000' stroke-linecap='round' stroke-linejoin='round' fill='none' d='M350.0 154.0 L480.0 154.0 Q490.0 154.0 490.0 168.0 L490.0 168.0 L490.0 168.0 Q490.0 182.0 500.0 182.0 L650.0 182.0 L650.0 182.0 ' />
    <path stroke='#000000' stroke-width='2,000000' stroke-linecap='round' stroke-linejoin='round' fill='none' d='M430.0 462.0 L630.0 462.0 ' />
    <text x='72' y='109' font-family='Courier' font-size='30' stroke='none' fill='#000000' ><![CDATA[Client]]></text>
    <text x='60' y='165' font-family='Courier' font-size='30' stroke='none' fill='#000000' ><![CDATA[idClient]]></text>
    <text x='60' y='191' font-family='Courier' font-size='24' stroke='none' fill='#000000' ><![CDATA[nom]]></text>
    <text x='60' y='220' font-family='Courier' font-size='27' stroke='none' fill='#000000' ><![CDATA[prenom]]></text>
    <text x='60' y='249' font-family='Courier' font-size='30' stroke='none' fill='#000000' ><![CDATA[adresse]]></text>
    <text x='62' y='361' font-family='Courier' font-size='30' stroke='none' fill='#000000' ><![CDATA[ModeleVelo]]></text>
    <text x='364' y='417' font-family='Courier' font-size='30' stroke='none' fill='#000000' ><![CDATA[INT]]></text>
    <text x='343' y='443' font-family='Courier' font-size='25' stroke='none' fill='#000000' ><![CDATA[CHAR]]></text>
    <text x='364' y='473' font-family='Courier' font-size='30' stroke='none' fill='#000000' ><![CDATA[INT]]></text>
    <text x='364' y='501' font-family='Courier' font-size='30' stroke='none' fill='#000000' ><![CDATA[INT]]></text>
    <text x='364' y='529' font-family='Courier' font-size='30' stroke='none' fill='#000000' ><![CDATA[INT]]></text>
    <text x='264' y='165' font-family='Courier' font-size='30' stroke='none' fill='#000000' ><![CDATA[INT]]></text>
    <text x='243' y='191' font-family='Courier' font-size='25' stroke='none' fill='#000000' ><![CDATA[CHAR]]></text>
    <text x='243' y='219' font-family='Courier' font-size='25' stroke='none' fill='#000000' ><![CDATA[CHAR]]></text>
    <text x='243' y='247' font-family='Courier' font-size='25' stroke='none' fill='#000000' ><![CDATA[CHAR]]></text>
    <text x='60' y='417' font-family='Courier' font-size='30' stroke='none' fill='#000000' ><![CDATA[idModele]]></text>
    <text x='60' y='444' font-family='Courier' font-size='27' stroke='none' fill='#000000' ><![CDATA[nomModele]]></text>
    <text x='60' y='473' font-family='Courier' font-size='30' stroke='none' fill='#000000' ><![CDATA[#idFabricant]]></text>
    <text x='60' y='501' font-family='Courier' font-size='30' stroke='none' fill='#000000' ><![CDATA[Stock]]></text>
    <text x='60' y='529' font-family='Courier' font-size='30' stroke='none' fill='#000000' ><![CDATA[prixUnitaire]]></text>
    <text x='682' y='107' font-family='Courier' font-size='25' stroke='none' fill='#000000' ><![CDATA[Commande]]></text>
    <text x='661' y='164' font-family='Courier' font-size='28' stroke='none' fill='#000000' ><![CDATA[numeroCommande INT]]></text>
    <text x='660' y='193' font-family='Courier' font-size='30' stroke='none' fill='#000000' ><![CDATA[#idClient]]></text>
    <text x='964' y='193' font-family='Courier' font-size='30' stroke='none' fill='#000000' ><![CDATA[INT]]></text>
    <text x='660' y='221' font-family='Courier' font-size='30' stroke='none' fill='#000000' ><![CDATA[#idModele]]></text>
    <text x='964' y='221' font-family='Courier' font-size='30' stroke='none' fill='#000000' ><![CDATA[INT]]></text>
    <text x='660' y='249' font-family='Courier' font-size='30' stroke='none' fill='#000000' ><![CDATA[date]]></text>
    <text x='941' y='248' font-family='Courier' font-size='27' stroke='none' fill='#000000' ><![CDATA[DATE]]></text>
    <text x='660' y='277' font-family='Courier' font-size='30' stroke='none' fill='#000000' ><![CDATA[quantite]]></text>
    <text x='964' y='277' font-family='Courier' font-size='30' stroke='none' fill='#000000' ><![CDATA[INT]]></text>
    <text x='660' y='305' font-family='Courier' font-size='30' stroke='none' fill='#000000' ><![CDATA[totalCde]]></text>
    <text x='964' y='305' font-family='Courier' font-size='30' stroke='none' fill='#000000' ><![CDATA[INT]]></text>
    <text x='924' y='473' font-family='Courier' font-size='30' stroke='none' fill='#000000' ><![CDATA[INT]]></text>
    <text x='903' y='499' font-family='Courier' font-size='25' stroke='none' fill='#000000' ><![CDATA[CHAR]]></text>
    <text x='903' y='527' font-family='Courier' font-size='25' stroke='none' fill='#000000' ><![CDATA[CHAR]]></text>
    <text x='668' y='417' font-family='Courier' font-size='30' stroke='none' fill='#000000' ><![CDATA[Fabriquant]]></text>
    <text x='660' y='473' font-family='Courier' font-size='30' stroke='none' fill='#000000' ><![CDATA[idFabricant]]></text>
    <text x='660' y='499' font-family='Courier' font-size='24' stroke='none' fill='#000000' ><![CDATA[nom]]></text>
    <text x='660' y='529' font-family='Courier' font-size='30' stroke='none' fill='#000000' ><![CDATA[adresse]]></text>
  </g>
</svg>