\relax 
\providecommand\hyper@newdestlabel[2]{}
\providecommand*\new@tpo@label[2]{}
\providecommand\HyperFirstAtBeginDocument{\AtBeginDocument}
\HyperFirstAtBeginDocument{\ifx\hyper@anchor\@undefined
\global\let\oldcontentsline\contentsline
\gdef\contentsline#1#2#3#4{\oldcontentsline{#1}{#2}{#3}}
\global\let\oldnewlabel\newlabel
\gdef\newlabel#1#2{\newlabelxx{#1}#2}
\gdef\newlabelxx#1#2#3#4#5#6{\oldnewlabel{#1}{{#2}{#3}}}
\AtEndDocument{\ifx\hyper@anchor\@undefined
\let\contentsline\oldcontentsline
\let\newlabel\oldnewlabel
\fi}
\fi}
\global\let\hyper@last\relax 
\gdef\HyperFirstAtBeginDocument#1{#1}
\providecommand*\HyPL@Entry[1]{}
\HyPL@Entry{0<</S/D>>}
\gdef\minted@oldcachelist{,
  default-pyg-prefix.pygstyle,
  default.pygstyle,
  1AAF56C3A4069C027FCE66B8960C374D606052E7DEFDB5A4980DC49316379C33.pygtex,
  2C62CDD3CA1F049410863A355BCA2950606052E7DEFDB5A4980DC49316379C33.pygtex,
  2E08D7E67F7AE56F42A47B756F0BB60A780146010290862C73F88AF265F7701E.pygtex,
  5EAC06E7BAF8951AA3A888BE4CDA190C780146010290862C73F88AF265F7701E.pygtex,
  E1FB0B2983F0074FF9B49959C5D60195780146010290862C73F88AF265F7701E.pygtex,
  87C4587965F3B990B8102B7B3150E1D3780146010290862C73F88AF265F7701E.pygtex,
  1EBFAD1A721D20A5579E35DDB9EE4DC1780146010290862C73F88AF265F7701E.pygtex}
