<?xml version="1.0" encoding="UTF-8" standalone="no"?>
<!-- Created with Inkscape (http://www.inkscape.org/) -->

<svg
   xmlns:dc="http://purl.org/dc/elements/1.1/"
   xmlns:cc="http://creativecommons.org/ns#"
   xmlns:rdf="http://www.w3.org/1999/02/22-rdf-syntax-ns#"
   xmlns:svg="http://www.w3.org/2000/svg"
   xmlns="http://www.w3.org/2000/svg"
   xmlns:sodipodi="http://sodipodi.sourceforge.net/DTD/sodipodi-0.dtd"
   xmlns:inkscape="http://www.inkscape.org/namespaces/inkscape"
   width="58.7925mm"
   height="51.064209mm"
   viewBox="0 0 58.7925 51.064209"
   version="1.1"
   id="svg8"
   inkscape:export-filename="/home/patrice/GNSIcontenus/brouillons/latex/exo_53_liaisons.png"
   inkscape:export-xdpi="314.85001"
   inkscape:export-ydpi="314.85001"
   inkscape:version="0.92.5 (2060ec1f9f, 2020-04-08)"
   sodipodi:docname="reseaux.svg">
  <defs
     id="defs2" />
  <sodipodi:namedview
     id="base"
     pagecolor="#ffffff"
     bordercolor="#666666"
     borderopacity="1.0"
     inkscape:pageopacity="0.0"
     inkscape:pageshadow="2"
     inkscape:zoom="1.4"
     inkscape:cx="169.33556"
     inkscape:cy="18.815331"
     inkscape:document-units="mm"
     inkscape:current-layer="layer2"
     showgrid="false"
     fit-margin-top="0"
     fit-margin-left="0"
     fit-margin-right="0"
     fit-margin-bottom="0"
     inkscape:window-width="1848"
     inkscape:window-height="1016"
     inkscape:window-x="72"
     inkscape:window-y="27"
     inkscape:window-maximized="1" />
  <metadata
     id="metadata5">
    <rdf:RDF>
      <cc:Work
         rdf:about="">
        <dc:format>image/svg+xml</dc:format>
        <dc:type
           rdf:resource="http://purl.org/dc/dcmitype/StillImage" />
        <dc:title></dc:title>
      </cc:Work>
    </rdf:RDF>
  </metadata>
  <g
     inkscape:label="Calque 1"
     inkscape:groupmode="layer"
     id="layer1"
     transform="translate(-22.270056,-63.184685)">
    <g
       id="g1254">
      <g
         transform="translate(33.913389,26.513072)"
         id="g847">
        <flowRoot
           xml:space="preserve"
           id="flowRoot817"
           style="font-style:normal;font-variant:normal;font-weight:normal;font-stretch:normal;font-size:16px;line-height:1.25;font-family:'Le Murmure';-inkscape-font-specification:'Le Murmure';letter-spacing:0px;word-spacing:0px;fill:#000000;fill-opacity:1;stroke:none"
           transform="matrix(0.26458333,0,0,0.26458333,0.15271605,0.193271)"><flowRegion
             id="flowRegion819"><rect
               id="rect821"
               width="33.335033"
               height="30.809652"
               x="51.51778"
               y="304.80121" /></flowRegion><flowPara
             id="flowPara823"
             style="font-style:normal;font-variant:normal;font-weight:normal;font-stretch:normal;font-family:'Linux Libertine Mono O';-inkscape-font-specification:'Linux Libertine Mono O'">R1</flowPara></flowRoot>        <circle
           style="opacity:1;fill:none;fill-opacity:1;stroke:#000000;stroke-width:0.28299999;stroke-linecap:round;stroke-linejoin:round;stroke-miterlimit:4;stroke-dasharray:none;stroke-dashoffset:0;stroke-opacity:1"
           id="path825"
           cx="16.236624"
           cy="83.384827"
           r="4.2094951" />
      </g>
      <g
         transform="translate(0.70515,13.216411)"
         id="g1057">
        <flowRoot
           xml:space="preserve"
           id="flowRoot817-4"
           style="font-style:normal;font-variant:normal;font-weight:normal;font-stretch:normal;font-size:16px;line-height:1.25;font-family:'Le Murmure';-inkscape-font-specification:'Le Murmure';letter-spacing:0px;word-spacing:0px;fill:#000000;fill-opacity:1;stroke:none"
           transform="matrix(0.26458333,0,0,0.26458333,11.177584,13.489933)"><flowRegion
             id="flowRegion819-1"><rect
               id="rect821-5"
               width="33.335033"
               height="30.809652"
               x="51.51778"
               y="304.80121" /></flowRegion><flowPara
             id="flowPara823-5"
             style="font-style:normal;font-variant:normal;font-weight:normal;font-stretch:normal;font-family:'Linux Libertine Mono O';-inkscape-font-specification:'Linux Libertine Mono O'">R2</flowPara><flowPara
             id="flowPara879"
             style="font-style:normal;font-variant:normal;font-weight:normal;font-stretch:normal;font-family:'Linux Libertine Mono O';-inkscape-font-specification:'Linux Libertine Mono O'" /></flowRoot>        <circle
           style="opacity:1;fill:none;fill-opacity:1;stroke:#000000;stroke-width:0.28299999;stroke-linecap:round;stroke-linejoin:round;stroke-miterlimit:4;stroke-dasharray:none;stroke-dashoffset:0;stroke-opacity:1"
           id="path825-4"
           cx="27.261492"
           cy="96.681488"
           r="4.2094951" />
      </g>
      <g
         transform="translate(-8.716101,-19.925011)"
         id="g1017">
        <flowRoot
           xml:space="preserve"
           id="flowRoot817-4-3"
           style="font-style:normal;font-variant:normal;font-weight:normal;font-stretch:normal;font-size:16px;line-height:1.25;font-family:'Le Murmure';-inkscape-font-specification:'Le Murmure';letter-spacing:0px;word-spacing:0px;fill:#000000;fill-opacity:1;stroke:none"
           transform="matrix(0.26458333,0,0,0.26458333,20.598835,21.374385)"><flowRegion
             id="flowRegion819-1-4"><rect
               id="rect821-5-6"
               width="33.335033"
               height="30.809652"
               x="51.51778"
               y="304.80121" /></flowRegion><flowPara
             id="flowPara823-5-3"
             style="font-style:normal;font-variant:normal;font-weight:normal;font-stretch:normal;font-family:'Linux Libertine Mono O';-inkscape-font-specification:'Linux Libertine Mono O'">R3</flowPara><flowPara
             id="flowPara879-6"
             style="font-style:normal;font-variant:normal;font-weight:normal;font-stretch:normal;font-family:'Linux Libertine Mono O';-inkscape-font-specification:'Linux Libertine Mono O'" /></flowRoot>        <circle
           style="opacity:1;fill:none;fill-opacity:1;stroke:#000000;stroke-width:0.28299999;stroke-linecap:round;stroke-linejoin:round;stroke-miterlimit:4;stroke-dasharray:none;stroke-dashoffset:0;stroke-opacity:1"
           id="path825-4-3"
           cx="36.682743"
           cy="104.56594"
           r="4.2094951" />
      </g>
      <g
         transform="translate(23.222608,-30.482163)"
         id="g1025">
        <flowRoot
           xml:space="preserve"
           id="flowRoot817-4-34"
           style="font-style:normal;font-variant:normal;font-weight:normal;font-stretch:normal;font-size:16px;line-height:1.25;font-family:'Le Murmure';-inkscape-font-specification:'Le Murmure';letter-spacing:0px;word-spacing:0px;fill:#000000;fill-opacity:1;stroke:none"
           transform="matrix(0.26458333,0,0,0.26458333,5.8990106,31.931532)"><flowRegion
             id="flowRegion819-1-43"><rect
               id="rect821-5-9"
               width="33.335033"
               height="30.809652"
               x="51.51778"
               y="304.80121" /></flowRegion><flowPara
             id="flowPara823-5-7"
             style="font-style:normal;font-variant:normal;font-weight:normal;font-stretch:normal;font-family:'Linux Libertine Mono O';-inkscape-font-specification:'Linux Libertine Mono O'">R4</flowPara><flowPara
             id="flowPara879-2"
             style="font-style:normal;font-variant:normal;font-weight:normal;font-stretch:normal;font-family:'Linux Libertine Mono O';-inkscape-font-specification:'Linux Libertine Mono O'" /></flowRoot>        <circle
           style="opacity:1;fill:none;fill-opacity:1;stroke:#000000;stroke-width:0.28299999;stroke-linecap:round;stroke-linejoin:round;stroke-miterlimit:4;stroke-dasharray:none;stroke-dashoffset:0;stroke-opacity:1"
           id="path825-4-5"
           cx="21.982918"
           cy="115.12309"
           r="4.2094951" />
      </g>
      <g
         transform="translate(53.958603,-23.399514)"
         id="g1033">
        <flowRoot
           xml:space="preserve"
           id="flowRoot817-4-8"
           style="font-style:normal;font-variant:normal;font-weight:normal;font-stretch:normal;font-size:16px;line-height:1.25;font-family:'Le Murmure';-inkscape-font-specification:'Le Murmure';letter-spacing:0px;word-spacing:0px;fill:#000000;fill-opacity:1;stroke:none"
           transform="matrix(0.26458333,0,0,0.26458333,-6.395388,24.848889)"><flowRegion
             id="flowRegion819-1-9"><rect
               id="rect821-5-0"
               width="33.335033"
               height="30.809652"
               x="51.51778"
               y="304.80121" /></flowRegion><flowPara
             id="flowPara823-5-2"
             style="font-style:normal;font-variant:normal;font-weight:normal;font-stretch:normal;font-family:'Linux Libertine Mono O';-inkscape-font-specification:'Linux Libertine Mono O'">R5</flowPara><flowPara
             id="flowPara879-4"
             style="font-style:normal;font-variant:normal;font-weight:normal;font-stretch:normal;font-family:'Linux Libertine Mono O';-inkscape-font-specification:'Linux Libertine Mono O'" /></flowRoot>        <circle
           style="opacity:1;fill:none;fill-opacity:1;stroke:#000000;stroke-width:0.28299999;stroke-linecap:round;stroke-linejoin:round;stroke-miterlimit:4;stroke-dasharray:none;stroke-dashoffset:0;stroke-opacity:1"
           id="path825-4-7"
           cx="9.6885204"
           cy="108.04044"
           r="4.2094951" />
      </g>
      <g
         transform="translate(64.114845,4.3965163)"
         id="g1049">
        <flowRoot
           xml:space="preserve"
           id="flowRoot817-4-6"
           style="font-style:normal;font-variant:normal;font-weight:normal;font-stretch:normal;font-size:16px;line-height:1.25;font-family:'Le Murmure';-inkscape-font-specification:'Le Murmure';letter-spacing:0px;word-spacing:0px;fill:#000000;fill-opacity:1;stroke:none"
           transform="matrix(0.26458333,0,0,0.26458333,-5.192675,14.826282)"><flowRegion
             id="flowRegion819-1-5"><rect
               id="rect821-5-7"
               width="33.335033"
               height="30.809652"
               x="51.51778"
               y="304.80121" /></flowRegion><flowPara
             id="flowPara823-5-1"
             style="font-style:normal;font-variant:normal;font-weight:normal;font-stretch:normal;font-family:'Linux Libertine Mono O';-inkscape-font-specification:'Linux Libertine Mono O'">R6</flowPara><flowPara
             id="flowPara879-3"
             style="font-style:normal;font-variant:normal;font-weight:normal;font-stretch:normal;font-family:'Linux Libertine Mono O';-inkscape-font-specification:'Linux Libertine Mono O'" /></flowRoot>        <circle
           style="opacity:1;fill:none;fill-opacity:1;stroke:#000000;stroke-width:0.28299999;stroke-linecap:round;stroke-linejoin:round;stroke-miterlimit:4;stroke-dasharray:none;stroke-dashoffset:0;stroke-opacity:1"
           id="path825-4-33"
           cx="10.891233"
           cy="98.017838"
           r="4.2094951" />
      </g>
      <g
         transform="translate(70.596131,-20.192279)"
         id="g1041">
        <flowRoot
           xml:space="preserve"
           id="flowRoot817-4-85"
           style="font-style:normal;font-variant:normal;font-weight:normal;font-stretch:normal;font-size:16px;line-height:1.25;font-family:'Le Murmure';-inkscape-font-specification:'Le Murmure';letter-spacing:0px;word-spacing:0px;fill:#000000;fill-opacity:1;stroke:none"
           transform="matrix(0.26458333,0,0,0.26458333,-11.673961,4.5364049)"><flowRegion
             id="flowRegion819-1-1"><rect
               id="rect821-5-08"
               width="33.335033"
               height="30.809652"
               x="51.51778"
               y="304.80121" /></flowRegion><flowPara
             id="flowPara823-5-76"
             style="font-style:normal;font-variant:normal;font-weight:normal;font-stretch:normal;font-family:'Linux Libertine Mono O';-inkscape-font-specification:'Linux Libertine Mono O'">R7</flowPara><flowPara
             id="flowPara879-35"
             style="font-style:normal;font-variant:normal;font-weight:normal;font-stretch:normal;font-family:'Linux Libertine Mono O';-inkscape-font-specification:'Linux Libertine Mono O'" /></flowRoot>        <circle
           style="opacity:1;fill:none;fill-opacity:1;stroke:#000000;stroke-width:0.28299999;stroke-linecap:round;stroke-linejoin:round;stroke-miterlimit:4;stroke-dasharray:none;stroke-dashoffset:0;stroke-opacity:1"
           id="path825-4-0"
           cx="4.4099474"
           cy="87.727959"
           r="4.2094951" />
      </g>
      <path
         inkscape:connector-curvature="0"
         id="path1059"
         d="m 32.042502,84.774563 h 8.819894 v 0"
         style="fill:none;stroke:#000000;stroke-width:0.26458332px;stroke-linecap:butt;stroke-linejoin:miter;stroke-opacity:1" />
      <path
         inkscape:connector-curvature="0"
         id="path1061"
         d="m 49.415021,84.574112 9.888971,0.06682"
         style="fill:none;stroke:#000000;stroke-width:0.26458332px;stroke-linecap:butt;stroke-linejoin:miter;stroke-opacity:1" />
      <path
         inkscape:connector-curvature="0"
         id="path1063"
         d="m 65.718463,88.44952 6.882188,10.356693"
         style="fill:none;stroke:#000000;stroke-width:0.26458332px;stroke-linecap:butt;stroke-linejoin:miter;stroke-opacity:1" />
      <path
         inkscape:connector-curvature="0"
         id="path1067"
         d="m 27.922991,88.829612 c 0.04725,16.819948 0.09449,16.819948 0.09449,16.819948"
         style="fill:none;stroke:#000000;stroke-width:0.26458332px;stroke-linecap:butt;stroke-linejoin:miter;stroke-opacity:1" />
      <path
         inkscape:connector-curvature="0"
         id="path1069"
         d="m 32.22247,109.76005 13.607143,0.0472"
         style="fill:none;stroke:#000000;stroke-width:0.26458332px;stroke-linecap:butt;stroke-linejoin:miter;stroke-opacity:1" />
      <path
         inkscape:connector-curvature="0"
         id="path1071"
         d="M 49.278646,105.6968 45.357143,88.829612"
         style="fill:none;stroke:#000000;stroke-width:0.26458332px;stroke-linecap:butt;stroke-linejoin:miter;stroke-opacity:1" />
      <path
         inkscape:connector-curvature="0"
         id="path1073"
         d="M 48.113097,81.565454 71.330107,69.542076"
         style="fill:none;stroke:#000000;stroke-width:0.26809889px;stroke-linecap:butt;stroke-linejoin:miter;stroke-opacity:1" />
      <path
         inkscape:connector-curvature="0"
         id="path1075"
         d="M 75.607434,98.242448 74.805625,71.678358"
         style="fill:none;stroke:#000000;stroke-width:0.26577684px;stroke-linecap:butt;stroke-linejoin:miter;stroke-opacity:1" />
      <path
         inkscape:connector-curvature="0"
         id="path1195"
         d="M 48.475447,87.034226 70.870534,100.83035"
         style="fill:none;stroke:#000000;stroke-width:0.26458332px;stroke-linecap:butt;stroke-linejoin:miter;stroke-opacity:1" />
    </g>
  </g>
  <g
     inkscape:groupmode="layer"
     id="layer2"
     inkscape:label="liaisons"
     transform="translate(-22.270056,-63.184685)"
     style="display:inline">
    <flowRoot
       xml:space="preserve"
       id="flowRoot1257"
       style="font-style:normal;font-variant:normal;font-weight:normal;font-stretch:normal;font-size:16px;line-height:1.25;font-family:'Le Murmure';-inkscape-font-specification:'Le Murmure';letter-spacing:0px;word-spacing:0px;fill:#000000;fill-opacity:1;stroke:none"
       transform="matrix(0.26458333,0,0,0.26458333,24.455162,11.826677)"><flowRegion
         id="flowRegion1259"><rect
           id="rect1261"
           width="33.840111"
           height="27.274118"
           x="193.9493"
           y="262.37479" /></flowRegion><flowPara
         id="flowPara1263"
         style="font-style:normal;font-variant:normal;font-weight:normal;font-stretch:normal;font-family:'Linux Libertine Mono O';-inkscape-font-specification:'Linux Libertine Mono O'">FE</flowPara></flowRoot>    <flowRoot
       xml:space="preserve"
       id="flowRoot1257-6"
       style="font-style:normal;font-variant:normal;font-weight:normal;font-stretch:normal;font-size:16px;line-height:1.25;font-family:'Le Murmure';-inkscape-font-specification:'Le Murmure';letter-spacing:0px;word-spacing:0px;fill:#000000;fill-opacity:1;stroke:none"
       transform="matrix(0.26458333,0,0,0.26458333,2.845139,0.45946205)"><flowRegion
         id="flowRegion1259-5"><rect
           id="rect1261-0"
           width="33.840111"
           height="27.274118"
           x="193.9493"
           y="262.37479" /></flowRegion><flowPara
         id="flowPara1263-8"
         style="font-style:normal;font-variant:normal;font-weight:normal;font-stretch:normal;font-family:'Linux Libertine Mono O';-inkscape-font-specification:'Linux Libertine Mono O'">FE</flowPara></flowRoot>    <flowRoot
       xml:space="preserve"
       id="flowRoot1257-1"
       style="font-style:normal;font-variant:normal;font-weight:normal;font-stretch:normal;font-size:16px;line-height:1.25;font-family:'Le Murmure';-inkscape-font-specification:'Le Murmure';letter-spacing:0px;word-spacing:0px;fill:#000000;fill-opacity:1;stroke:none"
       transform="matrix(0.26458333,0,0,0.26458333,3.5133128,22.776467)"><flowRegion
         id="flowRegion1259-2"><rect
           id="rect1261-2"
           width="33.840111"
           height="27.274118"
           x="193.9493"
           y="262.37479" /></flowRegion><flowPara
         id="flowPara1263-6"
         style="font-style:normal;font-variant:normal;font-weight:normal;font-stretch:normal;font-family:'Linux Libertine Mono O';-inkscape-font-specification:'Linux Libertine Mono O'">E</flowPara></flowRoot>    <flowRoot
       xml:space="preserve"
       id="flowRoot1257-1-9"
       style="font-style:normal;font-variant:normal;font-weight:normal;font-stretch:normal;font-size:16px;line-height:1.25;font-family:'Le Murmure';-inkscape-font-specification:'Le Murmure';letter-spacing:0px;word-spacing:0px;fill:#000000;fill-opacity:1;stroke:none"
       transform="matrix(0.26458333,0,0,0.26458333,17.8877,19.101512)"><flowRegion
         id="flowRegion1259-2-1"><rect
           id="rect1261-2-0"
           width="33.840111"
           height="27.274118"
           x="193.9493"
           y="262.37479" /></flowRegion><flowPara
         id="flowPara1263-6-4"
         style="font-style:normal;font-variant:normal;font-weight:normal;font-stretch:normal;font-family:'Linux Libertine Mono O';-inkscape-font-specification:'Linux Libertine Mono O'">E</flowPara></flowRoot>    <flowRoot
       xml:space="preserve"
       id="flowRoot1257-1-2"
       style="font-style:normal;font-variant:normal;font-weight:normal;font-stretch:normal;font-size:16px;line-height:1.25;font-family:'Le Murmure';-inkscape-font-specification:'Le Murmure';letter-spacing:0px;word-spacing:0px;fill:#000000;fill-opacity:1;stroke:none"
       transform="matrix(0.26458333,0,0,0.26458333,-16.189165,10.816156)"><flowRegion
         id="flowRegion1259-2-7"><rect
           id="rect1261-2-4"
           width="33.840111"
           height="27.274118"
           x="193.9493"
           y="262.37479" /></flowRegion><flowPara
         id="flowPara1263-6-0"
         style="font-style:normal;font-variant:normal;font-weight:normal;font-stretch:normal;font-family:'Linux Libertine Mono O';-inkscape-font-specification:'Linux Libertine Mono O'">E</flowPara></flowRoot>    <flowRoot
       xml:space="preserve"
       id="flowRoot1257-1-3"
       style="font-style:normal;font-variant:normal;font-weight:normal;font-stretch:normal;font-size:16px;line-height:1.25;font-family:'Le Murmure';-inkscape-font-specification:'Le Murmure';letter-spacing:0px;word-spacing:0px;fill:#000000;fill-opacity:1;stroke:none"
       transform="matrix(0.26458333,0,0,0.26458333,-14.919634,40.215805)"><flowRegion
         id="flowRegion1259-2-2"><rect
           id="rect1261-2-8"
           width="33.840111"
           height="27.274118"
           x="193.9493"
           y="262.37479" /></flowRegion><flowPara
         id="flowPara1263-6-03"
         style="font-style:normal;font-variant:normal;font-weight:normal;font-stretch:normal;font-family:'Linux Libertine Mono O';-inkscape-font-specification:'Linux Libertine Mono O'">E1</flowPara></flowRoot>    <flowRoot
       xml:space="preserve"
       id="flowRoot1257-1-3-7"
       style="font-style:normal;font-variant:normal;font-weight:normal;font-stretch:normal;font-size:16px;line-height:1.25;font-family:'Le Murmure';-inkscape-font-specification:'Le Murmure';letter-spacing:0px;word-spacing:0px;fill:#000000;fill-opacity:1;stroke:none"
       transform="matrix(0.26458333,0,0,0.26458333,1.4509294,10.70037)"><flowRegion
         id="flowRegion1259-2-2-0"><rect
           id="rect1261-2-8-0"
           width="33.840111"
           height="27.274118"
           x="193.9493"
           y="262.37479" /></flowRegion><flowPara
         id="flowPara1263-6-03-3"
         style="font-style:normal;font-variant:normal;font-weight:normal;font-stretch:normal;font-family:'Linux Libertine Mono O';-inkscape-font-specification:'Linux Libertine Mono O'">E1</flowPara></flowRoot>    <flowRoot
       xml:space="preserve"
       id="flowRoot1257-1-3-4"
       style="font-style:normal;font-variant:normal;font-weight:normal;font-stretch:normal;font-size:16px;line-height:1.25;font-family:'Le Murmure';-inkscape-font-specification:'Le Murmure';letter-spacing:0px;word-spacing:0px;fill:#000000;fill-opacity:1;stroke:none"
       transform="matrix(0.26458333,0,0,0.26458333,-9.7075732,25.867916)"><flowRegion
         id="flowRegion1259-2-2-9"><rect
           id="rect1261-2-8-2"
           width="33.840111"
           height="27.274118"
           x="193.9493"
           y="262.37479" /></flowRegion><flowPara
         id="flowPara1263-6-03-7"
         style="font-style:normal;font-variant:normal;font-weight:normal;font-stretch:normal;font-family:'Linux Libertine Mono O';-inkscape-font-specification:'Linux Libertine Mono O'">T1</flowPara></flowRoot>    <flowRoot
       xml:space="preserve"
       id="flowRoot1257-1-3-4-4"
       style="font-style:normal;font-variant:normal;font-weight:normal;font-stretch:normal;font-size:16px;line-height:1.25;font-family:'Le Murmure';-inkscape-font-specification:'Le Murmure';letter-spacing:0px;word-spacing:0px;fill:#000000;fill-opacity:1;stroke:none"
       transform="matrix(0.26458333,0,0,0.26458333,-29.113407,24.723151)"><flowRegion
         id="flowRegion1259-2-2-9-2"><rect
           id="rect1261-2-8-2-5"
           width="33.840111"
           height="27.274118"
           x="193.9493"
           y="262.37479" /></flowRegion><flowPara
         id="flowPara1263-6-03-7-2"
         style="font-style:normal;font-variant:normal;font-weight:normal;font-stretch:normal;font-family:'Linux Libertine Mono O';-inkscape-font-specification:'Linux Libertine Mono O'">T1</flowPara></flowRoot>  </g>
</svg>
