<?xml version="1.0" encoding="UTF-8" standalone="no"?>
<svg
   xmlns:dc="http://purl.org/dc/elements/1.1/"
   xmlns:cc="http://creativecommons.org/ns#"
   xmlns:rdf="http://www.w3.org/1999/02/22-rdf-syntax-ns#"
   xmlns:svg="http://www.w3.org/2000/svg"
   xmlns="http://www.w3.org/2000/svg"
   id="svg1333"
   version="1.1"
   viewBox="0 0 363.55084 231.11333"
   height="231.11333pt"
   width="363.55084pt">
  <metadata
     id="metadata1339">
    <rdf:RDF>
      <cc:Work
         rdf:about="">
        <dc:format>image/svg+xml</dc:format>
        <dc:type
           rdf:resource="http://purl.org/dc/dcmitype/StillImage" />
        <dc:title></dc:title>
      </cc:Work>
    </rdf:RDF>
  </metadata>
  <defs
     id="defs1337">
    <marker
       style="overflow:visible;"
       id="marker2040"
       refX="0.0"
       refY="0.0"
       orient="auto">
      <path
         transform="scale(1.1) rotate(180) translate(1,0)"
         d="M 8.7185878,4.0337352 L -2.2072895,0.016013256 L 8.7185884,-4.0017078 C 6.9730900,-1.6296469 6.9831476,1.6157441 8.7185878,4.0337352 z "
         style="fill-rule:evenodd;stroke-width:0.625;stroke-linejoin:round;stroke:#000000;stroke-opacity:1;fill:#000000;fill-opacity:1"
         id="path2038" />
    </marker>
    <marker
       style="overflow:visible;"
       id="marker2034"
       refX="0.0"
       refY="0.0"
       orient="auto">
      <path
         transform="scale(1.1) rotate(180) translate(1,0)"
         d="M 8.7185878,4.0337352 L -2.2072895,0.016013256 L 8.7185884,-4.0017078 C 6.9730900,-1.6296469 6.9831476,1.6157441 8.7185878,4.0337352 z "
         style="fill-rule:evenodd;stroke-width:0.625;stroke-linejoin:round;stroke:#000000;stroke-opacity:1;fill:#000000;fill-opacity:1"
         id="path2032" />
    </marker>
    <marker
       style="overflow:visible;"
       id="Arrow2Lend"
       refX="0.0"
       refY="0.0"
       orient="auto">
      <path
         transform="scale(1.1) rotate(180) translate(1,0)"
         d="M 8.7185878,4.0337352 L -2.2072895,0.016013256 L 8.7185884,-4.0017078 C 6.9730900,-1.6296469 6.9831476,1.6157441 8.7185878,4.0337352 z "
         style="fill-rule:evenodd;stroke-width:0.625;stroke-linejoin:round;stroke:#000000;stroke-opacity:1;fill:#000000;fill-opacity:1"
         id="path1787" />
    </marker>
  </defs>
  <g
     id="g2121">
    <g
       id="g1588"
       transform="translate(59.05083,-3.5)">
      <g
         transform="translate(4,200)"
         id="clust1"
         class="cluster">
        <title
           id="title1217">cluster_0</title>
        <polygon
           points="8,-8 8,-132 150,-132 150,-8 "
           id="polygon1219"
           style="fill:none;stroke:#000000" />
      </g>
      <g
         transform="translate(4,200)"
         id="node1"
         class="node">
        <title
           id="title1227">6</title>
        <ellipse
           cx="115"
           cy="-106"
           rx="27"
           ry="18"
           id="ellipse1229"
           style="fill:none;stroke:#000000" />
        <text
           x="115"
           y="-102.3"
           font-size="14.00"
           id="text1231"
           style="font-size:14px;font-family:Times, serif;text-anchor:middle">6</text>
      </g>
      <g
         transform="translate(4,200)"
         id="node2"
         class="node">
        <title
           id="title1234">7</title>
        <ellipse
           cx="43"
           cy="-34"
           rx="27"
           ry="18"
           id="ellipse1236"
           style="fill:none;stroke:#000000" />
        <text
           x="43"
           y="-30.299999"
           font-size="14.00"
           id="text1238"
           style="font-size:14px;font-family:Times, serif;text-anchor:middle">7</text>
      </g>
      <g
         transform="translate(4,200)"
         id="edge1"
         class="edge">
        <title
           id="title1241">6-&gt;7</title>
        <path
           d="m 100.43,-90.83 c -10.18,9.89 -23.95,23.28 -35.46,34.47"
           id="path1243"
           style="fill:none;stroke:#000000" />
        <polygon
           points="62.53,-58.87 67.41,-53.85 57.8,-49.38 "
           id="polygon1245"
           style="fill:#000000;stroke:#000000" />
      </g>
      <g
         transform="translate(4,200)"
         id="node3"
         class="node">
        <title
           id="title1248">4</title>
        <ellipse
           cx="115"
           cy="-34"
           rx="27"
           ry="18"
           id="ellipse1250"
           style="fill:none;stroke:#000000" />
        <text
           x="115"
           y="-30.299999"
           font-size="14.00"
           id="text1252"
           style="font-size:14px;font-family:Times, serif;text-anchor:middle">4</text>
      </g>
      <g
         transform="translate(4,200)"
         id="edge2"
         class="edge">
        <title
           id="title1255">6-&gt;4</title>
        <path
           d="m 115,-87.7 c 0,7.72 0,16.99 0,25.59"
           id="path1257"
           style="fill:none;stroke:#000000" />
        <polygon
           points="111.5,-62.1 118.5,-62.1 115,-52.1 "
           id="polygon1259"
           style="fill:#000000;stroke:#000000" />
      </g>
    </g>
    <g
       id="g1528"
       transform="translate(59.05083,-3.5)">
      <g
         transform="translate(4,200)"
         id="clust3"
         class="cluster">
        <title
           id="title1222">cluster_1</title>
        <polygon
           points="300,-132 300,-8 158,-8 158,-132 "
           id="polygon1224"
           style="fill:none;stroke:#000000" />
      </g>
      <g
         transform="translate(4,200)"
         id="node4"
         class="node">
        <title
           id="title1262">2</title>
        <ellipse
           cx="193"
           cy="-106"
           rx="27"
           ry="18"
           id="ellipse1264"
           style="fill:none;stroke:#000000" />
        <text
           x="193"
           y="-102.3"
           font-size="14.00"
           id="text1266"
           style="font-size:14px;font-family:Times, serif;text-anchor:middle">2</text>
      </g>
      <g
         transform="translate(4,200)"
         id="node5"
         class="node">
        <title
           id="title1269">9</title>
        <ellipse
           cx="193"
           cy="-34"
           rx="27"
           ry="18"
           id="ellipse1271"
           style="fill:none;stroke:#000000" />
        <text
           x="193"
           y="-30.299999"
           font-size="14.00"
           id="text1273"
           style="font-size:14px;font-family:Times, serif;text-anchor:middle">9</text>
      </g>
      <g
         transform="translate(4,200)"
         id="edge3"
         class="edge">
        <title
           id="title1276">2-&gt;9</title>
        <path
           d="m 193,-87.7 c 0,7.72 0,16.99 0,25.59"
           id="path1278"
           style="fill:none;stroke:#000000" />
        <polygon
           points="196.5,-62.1 193,-52.1 189.5,-62.1 "
           id="polygon1280"
           style="fill:#000000;stroke:#000000" />
      </g>
      <g
         transform="translate(4,200)"
         id="node6"
         class="node">
        <title
           id="title1283">1</title>
        <ellipse
           cx="265"
           cy="-34"
           rx="27"
           ry="18"
           id="ellipse1285"
           style="fill:none;stroke:#000000" />
        <text
           x="265"
           y="-30.299999"
           font-size="14.00"
           id="text1287"
           style="font-size:14px;font-family:Times, serif;text-anchor:middle">1</text>
      </g>
      <g
         transform="translate(4,200)"
         id="edge4"
         class="edge">
        <title
           id="title1290">2-&gt;1</title>
        <path
           d="m 207.57,-90.83 c 10.18,9.89 23.95,23.28 35.46,34.47"
           id="path1292"
           style="fill:none;stroke:#000000" />
        <polygon
           points="245.47,-58.87 250.2,-49.38 240.59,-53.85 "
           id="polygon1294"
           style="fill:#000000;stroke:#000000" />
      </g>
    </g>
    <g
       class="node"
       id="node7"
       transform="translate(63.05083,196.5)">
      <title
         id="title1297">3</title>
      <ellipse
         style="fill:none;stroke:#000000"
         id="ellipse1299"
         ry="18"
         rx="27"
         cy="-178"
         cx="154" />
      <text
         style="font-size:14px;font-family:Times, serif;text-anchor:middle"
         id="text1301"
         font-size="14.00"
         y="-174.3"
         x="154">3</text>
    </g>
    <g
       class="edge"
       id="edge5"
       transform="translate(63.05083,196.5)">
      <title
         id="title1304">3-&gt;6</title>
      <path
         style="fill:none;stroke:#000000"
         id="path1306"
         d="m 144.95,-160.76 c -4.77,8.57 -10.73,19.27 -16.08,28.86" />
      <polygon
         style="fill:#000000;stroke:#000000"
         id="polygon1308"
         points="131.92,-130.18 124,-123.15 125.81,-133.59 " />
    </g>
    <g
       class="edge"
       id="edge6"
       transform="translate(63.05083,196.5)">
      <title
         id="title1311">3-&gt;2</title>
      <path
         style="fill:none;stroke:#000000"
         id="path1313"
         d="m 163.05,-160.76 c 4.77,8.57 10.73,19.27 16.08,28.86" />
      <polygon
         style="fill:#000000;stroke:#000000"
         id="polygon1315"
         points="182.19,-133.59 184,-123.15 176.08,-130.18 " />
    </g>
    <g
       class="node"
       id="node8"
       transform="translate(55.248536,197.02911)">
      <title
         id="title1318">A</title>
      <polygon
         style="fill:none;stroke:#000000"
         id="polygon1320"
         points="109,-160 109,-196 55,-196 55,-160 " />
      <text
         style="font-size:14px;font-family:Times, serif;text-anchor:middle"
         id="text1322"
         font-size="14.00"
         y="-174.3"
         x="82">A</text>
    </g>
    <g
       id="g1557"
       transform="translate(59.05083,-3.5)">
      <polygon
         transform="translate(-113.55083,272)"
         style="fill:none;stroke:#000000"
         id="polygon1320-7"
         points="109,-196 55,-196 55,-160 109,-160 " />
      <text
         style="font-size:14px;font-family:Times, serif;text-anchor:middle"
         id="text1322-5"
         font-size="14.00"
         y="97.699997"
         x="-31.550831">B</text>
    </g>
    <g
       id="g1563"
       transform="translate(59.05083,-4.50665)">
      <polygon
         transform="translate(-113.55083,345.00665)"
         style="fill:none;stroke:#000000"
         id="polygon1320-9"
         points="109,-196 55,-196 55,-160 109,-160 " />
      <text
         style="font-size:14px;font-family:Times, serif;text-anchor:middle"
         id="text1322-1"
         font-size="14.00"
         y="170.70665"
         x="-31.550831">C</text>
    </g>
    <g
       id="g1594"
       transform="translate(59.364162,-3.5)">
      <polygon
         transform="translate(0.68666787,394.11333)"
         style="fill:none;stroke:#000000"
         id="polygon1320-0"
         points="55,-160 109,-160 109,-196 55,-196 " />
      <text
         style="font-size:14px;font-family:Times, serif;text-anchor:middle"
         id="text1322-9"
         font-size="14.00"
         y="219.81332"
         x="82.686668">D</text>
    </g>
    <g
       id="g1600"
       transform="translate(57.68417,-2.44667)">
      <polygon
         transform="translate(152.36666,393.06)"
         style="fill:none;stroke:#000000"
         id="polygon1320-6"
         points="109,-160 109,-196 55,-196 55,-160 " />
      <text
         style="font-size:14px;font-family:Times, serif;text-anchor:middle"
         id="text1322-2"
         font-size="14.00"
         y="218.75999"
         x="234.36665">E</text>
    </g>
    <path
       style="fill:none;stroke:#000000;stroke-width:0.75118111;stroke-linecap:butt;stroke-linejoin:miter;stroke-opacity:1;stroke-miterlimit:4;stroke-dasharray:none;marker-end:url(#Arrow2Lend)"
       d="M 58.095894,91.832139 C 145.61214,91.459734 145.61214,91.459734 145.61214,91.459734"
       id="path1764" />
    <path
       style="fill:none;stroke:#000000;stroke-width:0.75px;stroke-linecap:butt;stroke-linejoin:miter;stroke-opacity:1;marker-end:url(#marker2034)"
       d="m 166.83949,19.212273 c 20.11012,0 20.11012,0 20.11012,0"
       id="path2030" />
    <path
       style="fill:none;stroke:#000000;stroke-width:0.75px;stroke-linecap:butt;stroke-linejoin:miter;stroke-opacity:1;marker-end:url(#marker2040)"
       d="m 57.723485,163.70719 17.875661,-0.37241"
       id="path2036" />
  </g>
</svg>
